\relax 
\citation{surge18}
\citation{fritz07}
\citation{ncei18}
\citation{rego10}
\citation{allahdadi18}
\citation{shen06}
\citation{deb16}
\citation{dietsche07}
\citation{dietsche07,deb16}
\@writefile{toc}{\contentsline {section}{\numberline {I}Introduction}{1}}
\citation{yin13}
\citation{ji11}
\citation{mafi17}
\citation{you09}
\citation{chaudhuri15}
\citation{bajo10,pasquali15}
\citation{kim16}
\citation{kim15}
\citation{tayel15}
\citation{hashemi16}
\citation{chen12,lee06,lee08,tsai14}
\citation{mafi17}
\citation{rajasek08}
\citation{wei18}
\citation{vapnik95}
\@writefile{toc}{\contentsline {section}{\numberline {II}Artificial Neural Networks}{2}}
\@writefile{toc}{\contentsline {section}{\numberline {III}Support Vector Regression}{2}}
\citation{nhc18}
\citation{surge18}
\citation{takagi16}
\@writefile{toc}{\contentsline {section}{\numberline {IV}Dataset and Pre-processing}{3}}
\@writefile{lot}{\contentsline {table}{\numberline {I}{\ignorespaces Neural network and support vector model results}}{3}}
\newlabel{tbl1}{{I}{3}}
\@writefile{toc}{\contentsline {section}{\numberline {V}Results}{3}}
\@writefile{toc}{\contentsline {subsection}{\numberline {\unhbox \voidb@x \hbox {V-A}}Artificial Neural Network}{3}}
\@writefile{lof}{\contentsline {figure}{\numberline {1}{\ignorespaces Tensorboard diagram showing artificial neural network architecture}}{4}}
\newlabel{fig1}{{1}{4}}
\@writefile{toc}{\contentsline {subsection}{\numberline {\unhbox \voidb@x \hbox {V-B}}Support Vector Machines}{4}}
\@writefile{lof}{\contentsline {figure}{\numberline {2}{\ignorespaces Prediction vs. ground truth, artificial neural network model. Red line represents the ideal fit line.}}{4}}
\newlabel{fig2}{{2}{4}}
\@writefile{lof}{\contentsline {figure}{\numberline {3}{\ignorespaces Prediction vs. ground truth, support vector regression model. Red line represents the ideal fit line.}}{4}}
\newlabel{fig3}{{3}{4}}
\@writefile{toc}{\contentsline {section}{\numberline {VI}Discussion}{4}}
\bibstyle{IEEEtran}
\bibdata{IEEEabrv,surgepred}
\bibcite{surge18}{1}
\bibcite{fritz07}{2}
\bibcite{ncei18}{3}
\bibcite{rego10}{4}
\bibcite{allahdadi18}{5}
\bibcite{shen06}{6}
\bibcite{deb16}{7}
\bibcite{dietsche07}{8}
\bibcite{yin13}{9}
\bibcite{ji11}{10}
\bibcite{mafi17}{11}
\bibcite{you09}{12}
\bibcite{chaudhuri15}{13}
\bibcite{bajo10}{14}
\bibcite{pasquali15}{15}
\bibcite{kim16}{16}
\bibcite{kim15}{17}
\bibcite{tayel15}{18}
\bibcite{hashemi16}{19}
\bibcite{chen12}{20}
\bibcite{lee06}{21}
\bibcite{lee08}{22}
\bibcite{tsai14}{23}
\bibcite{rajasek08}{24}
\bibcite{wei18}{25}
\bibcite{vapnik95}{26}
\bibcite{nhc18}{27}
\bibcite{takagi16}{28}
\@writefile{toc}{\contentsline {section}{\numberline {VII}Conclusion}{5}}
\@writefile{toc}{\contentsline {section}{References}{5}}
