\relax 
\providecommand\hyper@newdestlabel[2]{}
\providecommand\HyperFirstAtBeginDocument{\AtBeginDocument}
\HyperFirstAtBeginDocument{\ifx\hyper@anchor\@undefined
\global\let\oldcontentsline\contentsline
\gdef\contentsline#1#2#3#4{\oldcontentsline{#1}{#2}{#3}}
\global\let\oldnewlabel\newlabel
\gdef\newlabel#1#2{\newlabelxx{#1}#2}
\gdef\newlabelxx#1#2#3#4#5#6{\oldnewlabel{#1}{{#2}{#3}}}
\AtEndDocument{\ifx\hyper@anchor\@undefined
\let\contentsline\oldcontentsline
\let\newlabel\oldnewlabel
\fi}
\fi}
\global\let\hyper@last\relax 
\gdef\HyperFirstAtBeginDocument#1{#1}
\providecommand\HyField@AuxAddToFields[1]{}
\providecommand\HyField@AuxAddToCoFields[2]{}
\citation{surge18}
\citation{fritz07}
\citation{ncei18}
\citation{rego10}
\citation{allahdadi18}
\citation{shen06}
\citation{deb16}
\citation{dietsche07}
\citation{dietsche07,deb16}
\citation{yin13}
\citation{ji11}
\citation{mafi17}
\citation{you09}
\citation{chaudhuri15}
\citation{bajo10,pasquali15}
\citation{kim16}
\citation{kim15}
\citation{tayel15}
\citation{hashemi16}
\citation{chen12,lee06,lee08,tsai14}
\citation{mafi17}
\citation{rajasek08}
\citation{wei18}
\citation{vapnik95}
\citation{nhc18}
\citation{surge18}
\citation{takagi16}
\newlabel{tbl1}{{1}{4}{Neural network and support vector model results}{table.1}{}}
\newlabel{fig1}{{1}{4}{Tensorboard diagram showing artificial neural network architecture}{figure.1}{}}
\newlabel{fig2}{{2}{5}{Prediction vs. ground truth, artificial neural network model. Best fit line is given}{figure.2}{}}
\newlabel{fig3}{{3}{5}{Prediction vs. ground truth, support vector regression model. Best fit line is given}{figure.3}{}}
\bibdata{example_paper}
\bibcite{allahdadi18}{{1}{2018}{{Allahdadi \& Li}}{{Allahdadi and Li}}}
\bibcite{bajo10}{{2}{2010}{{Bajo \& Umgiesser}}{{Bajo and Umgiesser}}}
\bibcite{chaudhuri15}{{3}{2015}{{Chaudhuri et~al.}}{{Chaudhuri, Goswami, Middey, Das, and Chowdhury}}}
\bibcite{chen12}{{4}{2012}{{Chen et~al.}}{{Chen, Liu, and Hsu}}}
\bibcite{deb16}{{5}{2018}{{Deb \& Ferreira}}{{Deb and Ferreira}}}
\bibcite{dietsche07}{{6}{2007}{{Dietsche et~al.}}{{Dietsche, Hagen, and Bacopoulos}}}
\bibcite{fritz07}{{7}{2007}{{Fritz et~al.}}{{Fritz, Blount, Sokoloski, Singleton, Fuggle, McAdoo, Moore, Grass, and Tate}}}
\bibcite{hashemi16}{{8}{2016}{{Hashemi et~al.}}{{Hashemi, Spaulding, Shaw, Farhadi, and Lewis}}}
\bibcite{ji11}{{9}{2011}{{Ji \& Hou}}{{Ji and Hou}}}
\bibcite{kim15}{{10}{2015}{{Kim et~al.}}{{Kim, Melby, Nadal-Caraballo, and Ratcliff}}}
\bibcite{kim16}{{11}{2016}{{Kim et~al.}}{{Kim, Matsumi, Pan, and Mase}}}
\bibcite{lee06}{{12}{2006}{{Lee}}{{}}}
\bibcite{lee08}{{13}{2008}{{Lee}}{{}}}
\bibcite{mafi17}{{14}{2017}{{Mafi \& Amirinia}}{{Mafi and Amirinia}}}
\bibcite{ncei18}{{15}{2018}{{National Centers for Environmental Information}}{{}}}
\bibcite{nhc18}{{16}{2018}{{National Hurricane Center}}{{}}}
\bibcite{pasquali15}{{17}{2015}{{Pasquali et~al.}}{{Pasquali, {Di Risio}, and {De Girolamo}}}}
\bibcite{rajasek08}{{18}{2008}{{Rajasekaran et~al.}}{{Rajasekaran, Gayathri, and Lee}}}
\bibcite{rego10}{{19}{2010}{{Rego \& Li}}{{Rego and Li}}}
\bibcite{shen06}{{20}{2006}{{Shen et~al.}}{{Shen, Wang, Sisson, and Gong}}}
\bibcite{surge18}{{21}{2018}{{Southern Regional Climate Center}}{{}}}
\bibcite{takagi16}{{22}{2016}{{Takagi \& Wu}}{{Takagi and Wu}}}
\bibcite{tayel15}{{23}{2015}{{Tayel \& Oumeraci}}{{Tayel and Oumeraci}}}
\bibcite{tsai14}{{24}{2014}{{Tsai \& You}}{{Tsai and You}}}
\bibcite{vapnik95}{{25}{1995}{{Vapnik}}{{}}}
\bibcite{wei18}{{26}{2018}{{Wei}}{{}}}
\bibcite{yin13}{{27}{2013}{{Yin et~al.}}{{Yin, Zou, and Xu}}}
\bibcite{you09}{{28}{2009}{{You \& Seo}}{{You and Seo}}}
\bibstyle{icml2013}
