,pdn,y_test
0,7.237024147846252,7.126774104500001
1,9.549604795824898,10.1650120122
2,8.170042846998376,11.036089533699998
3,8.345576992472232,6.094138073099999
4,6.529504585702663,4.3503445538
5,8.003646141206517,9.7233840111
6,8.622198975906528,8.8589123448
7,8.026099330134159,8.057575076900001
8,8.794725206652497,9.6953183513
9,6.337920565047209,5.0850946431
10,5.847798081661641,7.396649185
11,7.686545216381335,8.6651651453
12,8.01013180058922,10.131924972
13,6.931318688739764,14.08042712
14,7.740794689011185,7.9891305199
15,8.028094853329119,10.1322961186
16,8.635387653712861,7.5053385675
17,8.152622355864478,6.1330569039
18,7.394329393753231,9.2575843261
19,7.547582565539565,8.418695704800001
20,7.664643785019121,9.3040594629
21,6.397669221412483,3.5050331152
22,9.392579608682189,10.5851224448
23,5.793978311135776,5.732795164800001
24,7.639199401289815,11.274454463900001
25,8.090787052706316,10.1559101108
26,7.996583644369049,7.215282682400001
27,6.983408782897647,7.409669562
28,8.939882590160654,9.3163093238
29,5.596378879022699,5.0714852138
30,6.754778839703469,14.218013801899998
31,9.3968298139286,10.1241476674
32,8.1153160204748,6.1715354465
33,7.840217222319607,11.325778016700001
34,9.173286072292088,9.9739247938
35,5.9108071236408035,7.7023685809
36,7.280371392581047,7.9904986127
37,8.748059892558336,8.8980654919
38,6.243926991784065,4.9154406569999995
39,7.854401571732642,6.8518868516
40,5.606462666529036,5.6023059126999994
41,7.8560041766613145,6.1046445019
42,7.929532560224977,8.4843762082
43,8.41620697682478,8.2696318375
44,8.195179584085139,10.1943721432
45,7.839288430417804,6.8572486537
46,7.726099545851974,7.984201513899999
47,8.553097192810952,6.118289240499999
48,9.00550244861986,9.3257995537
49,8.34110524820334,8.250059892000001
50,8.183382840137044,11.0631459451
51,9.241573594980503,10.2455135206
52,6.909510888964411,7.0213190309
53,8.182289356961926,7.252459785599998
54,8.420257378952803,9.4454474296
55,7.8714960243051495,5.1699197595
56,8.84968360415429,9.337095267999999
57,7.807776385461422,6.8394769779999995
58,6.141659563028448,4.9135790741
59,6.90747983592622,14.104908683200001
60,7.927093122988739,8.6793543427
61,8.095507087879653,7.974511646600001
62,8.650757445895254,6.8313645072
63,8.065147881836488,8.024821557000001
64,7.869867503490828,5.1800661131
65,8.708870057479404,9.2434952512
66,8.287131654356202,6.6715698891
67,7.657949126558604,8.670539007999999
68,9.2463279060026,10.2481751429
69,7.143763325349922,7.9617359627
70,9.105450823608061,10.5780452049
71,9.200918258367944,10.0071079583
72,7.995445017393122,10.0613112175
73,8.601170324693262,9.6562238375
74,7.180310576088983,6.3570369992
75,5.712858245069622,7.1534908684
76,8.563955948897823,7.511220206799999
77,8.351962332297585,7.255577056799998
78,9.489008439200013,9.6989132627
79,7.229811171672758,9.2369394639
80,8.449459566101192,5.0335056167
81,8.297013966751528,6.894720395299999
82,9.382311065991065,10.5357809468
83,8.092827719702086,8.617998655800001
84,7.809195907197931,8.6809438863
85,6.075973660860653,3.9106669206999998
86,9.438736637019106,10.1148240966
87,7.02165519613933,14.114560764300002
88,8.72225435842257,8.8841806274
89,9.085265692672849,10.2061942705
90,5.600925862959605,5.4997494986
91,8.395271957198375,9.7682625117
92,7.943867388974037,11.3618290075
93,8.522763066657127,6.2235147301
94,7.946529201229068,6.111380555299999
95,6.166938837486281,7.438347661500001
96,8.327323013016017,6.2001659758
97,7.169873580141141,5.647403538300001
98,7.001467557215185,7.1200278913999995
99,5.51483496282674,5.5922110967
100,7.604649345738339,8.4337935689
101,7.966722692127392,11.3828835555
102,6.445347345037725,4.9295523938
103,8.225219439537405,6.6712977032000005
104,9.563284203465935,10.6306019787
105,9.312468590163718,10.1015944492
106,9.526483645844564,9.6783999864
107,8.530424136853451,6.7044965813
108,8.12590892973469,7.9719616324
109,9.426336303734285,9.6692114453
110,8.915177227170496,9.3143618045
111,6.2395526410854325,5.7653856882
112,8.52507292446512,6.687973747899999
113,9.009626418423272,9.359406312
114,9.247856943255883,10.0170720537
115,9.370880488427298,9.7650110565
116,8.792906914675521,7.7707348198
117,8.074445832810248,9.3654242033
118,8.952776997265424,9.2795176496
119,9.333727140362578,9.9665390343
120,8.426894353667842,9.7902278227
121,8.113907366690338,7.938550785800001
122,7.143553908273953,6.3562097426
123,8.810450297267172,9.636058576
124,8.632004376641218,8.8696112876
125,8.178373550240014,6.143596966900001
126,5.6108437051981594,5.9730368426
127,8.987690711212297,9.3184989725
128,9.20469779769112,9.7276118351
129,7.2101945182291995,9.2276627534
130,6.214395422089042,5.5419641071
131,5.763222842841078,5.611286402999999
132,6.451931651985157,4.3431363595
133,8.086505079600077,0.2708816425
134,9.396367507968478,10.6605762423
135,6.609341815429198,4.9426090372
136,8.90491370045724,9.493634650599999
137,6.200723538414805,5.4726562401
138,9.570894277887275,9.722504879299999
139,8.200626936049266,6.6586607065
140,6.4072626970822695,3.9199795173000007
141,7.314421522338394,5.6480036563
142,7.618490100667448,9.3163631017
143,6.7679064897790795,7.017229383600001
144,9.256841395612922,9.965735753099999
145,8.090850588425972,8.6171101061
146,8.318388720437653,6.7773177898000005
147,7.31243770309179,6.3710053302
148,8.550697883397655,6.2136603916999995
149,9.377200620540373,11.6554725572
150,7.210215418136981,7.951133508400001
151,8.391435570126033,9.4464907186
152,8.160336929824725,7.239333042200001
153,6.863041198007084,7.7618907247
154,9.601986652695407,9.725997765
155,5.633645504587593,5.502912459299999
156,9.512457299734356,9.718761647000001
157,6.877673223444795,14.0294847595
158,6.19844252247955,4.3297013094
159,8.424640507612702,11.073443774000001
160,6.987021122958573,7.116008056400001
161,8.495445215194302,6.700280874
162,8.479592217144006,9.7818039405
163,8.167896844467387,10.175722374500001
164,5.564695872820665,5.0617832067
165,6.23041938138499,7.442861743099999
166,6.506432341506538,3.504620317
167,8.959571975283291,9.904792836799999
168,6.321560117235981,7.2135347001
169,9.28206674830868,10.6191050672
170,7.833239997105887,5.1660783256
