storm_name,year,lat_x,lon_x,lat_y,lon_y,wspeed,pressure,target,elevation
ISAAC,2012,30.1189107784,-90.5294379522,29.1712000609,-90.2389372125,70.6568859606,976.0744103414,8.0346973178,0.9781515193
ISAAC,2012,29.5796503566,-88.9085644997,28.7480389807,-88.9206585023,69.3918182292,956.6157798742,7.8908410444,0.9606383228
ISAAC,2012,30.0707017251,-90.3845343554,29.3260616242,-90.6991596626,70.5437908487,973.504313712,8.0218367879,0.9765858664
ISAAC,2012,30.0784512263,-90.4078272957,29.4344220399,-90.9241393151,70.5619706437,973.7551948827,8.0239040903,0.9768375417
ISAAC,2012,29.914148052,-89.9139756378,29.4741412294,-90.7282238523,65.1639176839,970.4411125856,7.9800736118,0.9715015785
ISAAC,2012,29.5970755301,-88.9609399386,29.4593012224,-90.0641262961,59.5137398433,965.1144811248,7.8954894859,0.9612042284
ISAAC,2012,29.9307835153,-89.9639774175,30.1926875257,-91.3805260329,55.1693625885,980.0084954349,7.9845113855,0.9720418372
ISAAC,2012,30.2693418516,-90.7416895689,29.0911986375,-89.9914587611,70.4631108868,973.3975461074,7.4590235953,0.9754689586
ISAAC,2012,30.1313160534,-90.3279146613,29.0587476571,-89.8817125809,70.1418046897,966.9548789359,7.4250110393,0.9710208975
ISAAC,2012,30.3623655055,-91.0205566672,29.3825435049,-90.8738458916,70.6796579157,975.3792792361,7.4819466451,0.978466767
ISAAC,2012,30.300028696,-90.8336828513,29.4229819997,-90.8888005607,70.5345458897,973.3767332774,7.4665855006,0.9764578821
ISAAC,2012,30.3101935257,-90.8641550638,29.6344474851,-91.221683585,65.5183362765,975.7192233179,7.4690903355,0.976785457
ISAAC,2012,30.052091684,-90.0904151752,29.6819172015,-90.7447165621,59.9634690939,972.4075904726,7.4054884331,0.9684677891
ISAAC,2012,29.9935882613,-89.9150331187,30.0231126512,-90.8672944359,54.8595081666,974.5043541592,7.3910719184,0.9665824401
ISAAC,2012,30.024638511,-89.7507200744,28.8460430895,-89.2330883116,69.8693085214,965.1945905737,0.2694959043,0.967248547
ISAAC,2012,29.9063048031,-89.396992735,28.8317743972,-89.179660808,69.5939382003,959.4021480464,0.2684337616,0.9634364076
ISAAC,2012,29.8385733407,-89.1945274327,28.8656712659,-89.2752719564,69.4363226328,958.2212523321,0.2678258159,0.9612544277
ISAAC,2012,30.2394663663,-90.3928911601,29.3540204349,-90.6757754529,70.3692270699,971.0953335647,0.2714241616,0.9741692608
ISAAC,2012,30.1125999409,-90.0136575174,29.4310802327,-90.5956721449,65.0687148002,969.0233219473,0.2702854307,0.9700822386
ISAAC,2012,29.9452009453,-89.5132624704,29.566117526,-90.3906892713,59.7295303555,968.6138839314,0.2687828866,0.9646894531
ISAAC,2012,30.2743146315,-90.4970608371,30.2936381482,-91.6860609736,55.3538238589,983.2851983663,0.2717369535,0.9752919033
ISAAC,2012,30.3104558897,-90.3670256496,29.0618039199,-89.9005283888,70.3919126087,972.4139927513,6.164320347,0.9744833122
ISAAC,2012,30.1036188631,-89.7503656115,28.9633612912,-89.5866726834,69.9115617373,963.7808153784,6.122255335,0.9678334871
ISAAC,2012,30.0262787575,-89.5197852688,28.9885677266,-89.6553641028,69.7319498577,962.3009080365,6.1065264661,0.9653469972
ISAAC,2012,30.0080454585,-89.4654248525,29.0705211513,-89.8000345154,69.6896054998,961.716555897,6.1028183102,0.9647607954
ISAAC,2012,29.9465366427,-89.2820436208,29.2096390481,-89.9140249609,64.5791339498,961.7323332836,6.090309094,0.9627832826
ISAAC,2012,29.9307749169,-89.2350519066,29.4921658377,-90.1646012817,59.5801330055,966.1911569059,6.0871035887,0.962276542
ISAAC,2012,30.2882951059,-90.300955904,30.2463922967,-91.5430677152,55.2674942298,981.751670228,6.1598134478,0.9737708415
ISAAC,2012,30.5576598333,-90.7007013366,29.1754116126,-90.2519653344,70.6670869509,976.2153297358,6.2590848442,0.9782927386
ISAAC,2012,30.0249011923,-89.1193766328,28.7659447418,-88.9760428737,69.4350390319,957.2116095107,6.1499606,0.9612366579
ISAAC,2012,30.323741049,-90.0063877696,29.152434307,-90.1621679598,70.1261306354,967.7406027682,6.2111715706,0.9708039109
ISAAC,2012,30.2991057717,-89.9332657787,29.2288494091,-90.2891170104,70.0691595424,966.9544016853,6.2061255595,0.9700152212
ISAAC,2012,30.4879098177,-90.4936705832,29.6124294213,-91.1539068922,65.4696568839,974.9942748253,6.2447980412,0.9760597163
ISAAC,2012,30.1652350911,-89.5359132101,29.5979901089,-90.4881313767,59.7939194119,969.6580597968,6.1787050059,0.9657293984
ISAAC,2012,30.0853174387,-89.2987030585,29.9171453128,-90.5465760133,54.6658801398,971.0648163008,6.1623355794,0.9631708628
ISAAC,2012,30.3597019741,-90.6259850196,28.9716683414,-89.6217006824,70.1735911384,969.3980375828,7.0073343151,0.971460939
ISAAC,2012,30.5789220518,-91.2803733758,29.2818376172,-90.5717529055,70.6802976966,974.3783896747,7.0579325843,0.9784756239
ISAAC,2012,29.9851547204,-89.5079334053,28.8122676993,-89.1101062863,69.3078604449,956.4484741401,6.9208849216,0.9594760379
ISAAC,2012,30.3185944401,-90.5032759507,29.2327769774,-90.3012494303,70.0785749459,967.0843342538,6.9978462696,0.970145565
ISAAC,2012,30.3920617081,-90.7225812501,29.5043227983,-90.8211297024,65.2306456426,971.4348458776,7.0148032776,0.9724963977
ISAAC,2012,30.3343372894,-90.5502695353,29.7487771836,-90.9491235108,60.0985397649,974.5979865204,7.0014798826,0.9706493105
ISAAC,2012,30.5464365077,-91.1834015931,30.3602404814,-91.8876381347,55.4755224743,985.4470083166,7.0504345836,0.9774361395
ISAAC,2012,30.0579714434,-89.1788635159,28.6566701871,-88.6472773261,69.4106198302,958.8581339406,7.8830632521,0.9608986062
ISAAC,2012,30.4562979855,-90.3606567848,29.1368988288,-90.1234422395,70.3304454489,969.5554265458,7.9875291617,0.9736323804
ISAAC,2012,30.3967949952,-90.1841176242,29.1802493422,-90.2481938418,70.1930396548,968.6639472357,7.9719237894,0.9717301781
ISAAC,2012,30.2448869803,-89.7334224016,29.1341956581,-89.9967276836,69.8422498653,963.8230481418,7.9320840918,0.9668739556
ISAAC,2012,30.4709512035,-90.4041313532,29.5529988713,-90.9709659132,65.3382628106,973.0375138561,7.9913721438,0.9741008171
ISAAC,2012,30.2365529456,-89.7086961906,29.6249034243,-90.5704118158,59.8482897462,970.5397653834,7.9298983914,0.9666075316
ISAAC,2012,30.3204850149,-89.9577138786,30.1072337776,-91.1218935927,55.0132178661,977.2347973665,7.9519105825,0.969290687
ISAAC,2012,30.2128533178,-89.5864268967,28.7180254399,-88.8370752363,69.5592311694,960.9110934399,8.3967929054,0.9629559345
ISAAC,2012,30.6630282658,-90.9212748387,29.2467782422,-90.4633106318,70.595671619,973.2117587483,8.521906074,0.9773040874
ISAAC,2012,30.2428064255,-89.6752431323,28.9454342637,-89.5219616402,69.6281923869,960.8690549386,8.4051175096,0.9639106117
ISAAC,2012,30.1156583258,-89.2982266412,28.9227912865,-89.3436908919,69.3354585636,956.8293281771,8.3697803552,0.9598580975
ISAAC,2012,30.3025236159,-89.8523151106,29.3015854437,-90.1970572333,64.7824167974,964.7596839978,8.4217141837,0.9658139415
ISAAC,2012,30.1702626445,-89.4601380554,29.4713839997,-90.1010662347,59.5381494943,965.5103242987,8.3849560538,0.9615984678
ISAAC,2012,30.2501740995,-89.6970895822,29.9474166613,-90.6381946128,54.721193235,972.04737801,8.4071651425,0.9641454371
ISAAC,2012,30.2128103617,-88.9529325291,28.7549635587,-88.9513405588,69.6487006612,962.1470505629,9.6413701344,0.9641945218
ISAAC,2012,30.091784564,-88.5966068684,28.7388771474,-88.8923200043,69.3697034593,956.3109119747,9.6027489503,0.960332173
ISAAC,2012,30.4333351272,-89.6022042901,29.165296201,-90.2019470134,70.1570698993,968.1675646103,9.7117429618,0.9712322243
ISAAC,2012,30.1460628386,-88.7564136402,28.9892717613,-89.5490518106,69.4948295647,959.0286479934,9.6200699783,0.9620643791
ISAAC,2012,30.4128791725,-89.5419776134,29.4461636238,-90.6421023115,65.1020624337,969.5199451662,9.7052151536,0.9705794045
ISAAC,2012,30.4333426006,-89.6022262934,29.7666498241,-91.0037644454,60.1346461093,975.1835110725,9.7117453467,0.9712324628
ISAAC,2012,30.5154730305,-89.8440357278,30.2489605936,-91.5508408665,55.2721871312,981.835033222,9.7379544237,0.9738535268
ISAAC,2012,30.3417987288,-89.4589974008,28.9110517986,-89.4341879169,70.0267690624,967.3697954769,10.1238700416,0.9694283808
ISAAC,2012,30.031118173,-88.5429946521,28.7140350877,-88.8154809436,69.3097398668,955.4842710214,10.0202081065,0.959502056
ISAAC,2012,30.3239953063,-89.4065062368,29.0940469701,-89.9815885673,69.9856799968,965.802383956,10.1179297367,0.9688595568
ISAAC,2012,30.0429839153,-88.5779793087,28.9234865028,-89.3458384435,69.3371251779,956.852327455,10.02416724,0.9598811696
ISAAC,2012,30.1872375886,-89.0032932165,29.2614221174,-90.0734252254,64.6936203276,963.4372996483,10.0722990418,0.9644901121
ISAAC,2012,30.066687568,-88.6478665631,29.4419628215,-90.0111186598,59.4787127708,964.5464587666,10.0320762207,0.9606385075
ISAAC,2012,30.2871252306,-89.2977994316,30.0572521593,-90.9706203226,54.9218893276,975.6124704189,10.1056276363,0.9676815483
ISAAC,2012,30.136808061,-89.3116536877,28.8022379292,-89.0975803068,69.7632060568,963.7288608129,7.7536820446,0.9657796981
ISAAC,2012,29.9633870308,-88.7977134269,28.7355848518,-88.8821365934,69.3617565389,956.2013580005,7.7090637982,0.9602221583
ISAAC,2012,29.9896865974,-88.8756532598,28.8599819434,-89.2576761136,69.4226369772,958.0323902855,7.715830224,0.9610649678
ISAAC,2012,30.5238021994,-90.4585265215,29.474919036,-91.0492362003,70.6590524836,975.0949242734,7.853248976,0.9781815119
ISAAC,2012,29.9516350829,-88.7628860525,29.1205119014,-89.6396709891,64.3820841358,958.7978068226,7.7060402243,0.9598455494
ISAAC,2012,30.1497162417,-89.3499076048,29.6122097674,-90.531604272,59.8226459947,970.1239092147,7.7570030973,0.9661933604
ISAAC,2012,30.0104338176,-88.9371384888,29.8723856831,-90.4111074993,54.5840934409,969.6119871222,7.7211681267,0.9617298439
ISAAC,2012,30.2671337422,-90.8215591579,29.1282106277,-90.1059525992,70.5527593058,974.6359749821,6.4001431656,0.9767100229
ISAAC,2012,29.9430925484,-89.8492197646,28.91607339,-89.4404063133,69.7974185276,962.2072697023,6.3316229664,0.9662533247
ISAAC,2012,30.0709749501,-90.2329521396,29.1397059956,-90.1228020483,70.0955127042,967.3180753179,6.3586643667,0.970380046
ISAAC,2012,30.2079155774,-90.6438652242,29.3729981639,-90.7343984377,70.4147216257,971.7231584353,6.387621176,0.974799073
ISAAC,2012,29.8658085351,-89.6173162536,29.2392531113,-90.005183897,64.6446072188,962.7073813509,6.3152808591,0.9637593961
ISAAC,2012,30.108444358,-90.345385318,29.7775823321,-91.0371877358,60.156731984,975.5416703411,6.3665874683,0.9715891709
ISAAC,2012,30.2556421451,-90.7870767133,30.3261681175,-91.7845154653,55.4132640021,984.3410714556,6.3977132075,0.976339193
ISAAC,2012,30.0545971189,-90.2241621577,29.078602502,-89.952493553,70.432601216,972.9760767984,11.0981655916,0.9750465924
ISAAC,2012,29.7463549329,-89.2988164323,28.8799562455,-89.3286922491,69.7102392134,961.0054405843,10.9843419789,0.965046442
ISAAC,2012,29.9127285578,-89.7982715025,29.1416270851,-90.1287435622,70.1001338817,967.3818475677,11.0457782388,0.9704440201
ISAAC,2012,30.0439363794,-90.1921585251,29.3700348939,-90.7252447749,70.4076178963,971.6251269684,11.0942289342,0.9747007313
ISAAC,2012,30.1026991807,-90.3685649658,29.6290376937,-91.205030996,65.5063758534,975.5411050175,11.1159280871,0.9766071441
ISAAC,2012,29.9588935355,-89.9368591674,29.7883876132,-91.0702220631,60.1785608347,975.8956615355,11.0628254334,0.9719417279
ISAAC,2012,29.9066060246,-89.7798916046,30.1368878922,-91.2116440858,55.0674031254,978.1973246088,11.0435173904,0.9702453897
ISAAC,2012,29.9649215884,-90.8321134728,29.1283630644,-90.1064241508,70.5531285297,974.641075546,3.5276564265,0.9767151343
ISAAC,2012,29.6716282486,-89.9430587879,28.9430615274,-89.523883414,69.8625623075,963.1053232392,3.4931281154,0.9671551546
ISAAC,2012,29.6970504756,-90.0201207151,29.0677486996,-89.9002537101,69.9224195523,964.9293898218,3.4961209776,0.9679837993
ISAAC,2012,29.7779352696,-90.2653052976,29.2470807222,-90.3454342858,70.1128647451,967.5575334825,3.5056432373,0.9706202621
ISAAC,2012,29.7480080576,-90.1745874925,29.41780817,-90.5548176662,65.0393718044,968.5863370258,3.5021200202,0.9696447761
ISAAC,2012,29.6497000561,-89.8765882628,29.6197810853,-90.5547516008,59.8379415864,970.3719527262,3.4905465925,0.9664403989
ISAAC,2012,29.591707906,-89.7007977292,29.9599868137,-90.6762391604,54.7441619519,972.4553859461,3.4837193969,0.9645501283
ISAAC,2012,29.9475288403,-90.7894643249,29.1114558858,-90.0541230517,70.5121768861,974.0753578409,3.9587550737,0.9761482128
ISAAC,2012,29.5238123267,-89.50491776,28.7988751253,-89.0778999565,69.5145261645,958.30739641,3.9027441118,0.9623370526
ISAAC,2012,29.9342628715,-90.7492469763,29.2999343949,-90.6183537986,70.4809418434,972.6369974384,3.9570014492,0.9757158047
ISAAC,2012,29.4641658044,-89.3240922958,28.9389048601,-89.3934663828,69.3740869933,957.3624005072,3.8948594555,0.9603928572
ISAAC,2012,29.5026598913,-89.4407916585,29.1751833436,-89.8079623332,64.5029563719,960.5978733541,3.8999479776,0.9616475829
ISAAC,2012,29.4672765213,-89.3335228008,29.4375416308,-89.9976020228,59.4697810723,964.4016163896,3.8952706602,0.9604942519
ISAAC,2012,29.971133884,-90.8610257977,30.3441348775,-91.8388932672,55.44609363,984.9242450283,3.9618754176,0.9769176259
ISAAC,2012,29.5513491035,-89.4682981929,28.6973786657,-88.7732059761,69.5092216815,960.2202480862,4.3195016331,0.962263619
ISAAC,2012,29.9676429261,-90.7286501222,29.2023402169,-90.3258592227,70.4884074201,971.7330451492,4.3803510325,0.9758191558
ISAAC,2012,29.9245993122,-90.5983332672,29.2609489243,-90.4977801781,70.3871623608,971.3428405785,4.3740593753,0.9744175513
ISAAC,2012,30.0090609986,-90.8540455636,29.4443743669,-90.9548824621,70.5858289617,974.0844396716,4.3864050855,0.9771678287
ISAAC,2012,29.6924402257,-89.895459151,29.333257481,-90.2945510895,64.8524400091,965.8024912117,4.3401248314,0.9668578882
ISAAC,2012,29.8975643563,-90.5164834846,29.8372870088,-91.2197192053,60.2773474925,977.4976518367,4.3701076932,0.9735372276
ISAAC,2012,29.9621227931,-90.7119376228,30.3044319916,-91.7187293833,55.3735468286,983.6355500275,4.3795441583,0.9756394069
ISAAC,2012,29.4600255713,-89.4722920199,28.6954748571,-88.7673166861,69.5046103806,960.1565462577,4.8851811868,0.9621997816
ISAAC,2012,29.4342141457,-89.3939007976,28.7695385987,-88.987159045,69.443713859,957.3311981989,4.8809010312,0.9613567495
ISAAC,2012,29.6977527988,-90.1942873171,29.1272196307,-90.084184425,70.065476775,966.903579495,4.9246020819,0.9699642381
ISAAC,2012,29.4984203331,-89.5888997712,29.0311383123,-89.6783793071,69.5951945842,960.4136852624,4.8915479622,0.9634538006
ISAAC,2012,29.9532975748,-90.9703958363,29.6807195382,-91.3641196669,65.6206384348,977.2427385362,4.9669775554,0.9783106371
ISAAC,2012,29.6794279528,-90.1386333949,29.7094374856,-90.8288526496,60.0190656275,973.3091809258,4.9215633815,0.9693657266
ISAAC,2012,29.4026295834,-89.2979761296,29.8287546499,-90.2790547709,54.5043689616,968.1957904628,4.8756635507,0.9603251598
ISAAC,2012,30.0401916297,-89.3143272013,28.7661212094,-88.985855921,69.6757261127,962.5203878705,5.0166522801,0.9645686535
ISAAC,2012,30.0184671692,-89.2497368818,28.8447828995,-89.2198974513,69.6253380333,959.8350171735,5.0130243384,0.9638710969
ISAAC,2012,30.1654471834,-89.6867321327,29.0859679601,-89.9566019385,69.9662459522,965.5341941403,5.0375697086,0.9685905181
ISAAC,2012,29.9442697007,-89.0291358596,28.9719242962,-89.4954647781,69.4532431759,958.4547558275,5.0006335087,0.9614886703
ISAAC,2012,29.9926255258,-89.1729055147,29.2174682061,-89.9381249201,64.5964433128,961.9901096423,5.0087088353,0.9630413406
ISAAC,2012,30.1049630438,-89.5069030458,29.6261564745,-90.5742426898,59.8508211607,970.5808164892,5.0274689775,0.9666484164
ISAAC,2012,30.370752265,-90.2971372015,30.2902466262,-91.6757962672,55.3476267255,983.1751147428,5.071855249,0.9751827146
ISAAC,2012,30.3355917633,-91.2487341475,29.1358790947,-90.1296744314,70.5713334474,974.8925634807,5.1214624845,0.9769671574
ISAAC,2012,30.1510553542,-90.6936530445,29.0588436448,-89.8820094807,70.142036384,966.9580730083,5.0903077833,0.971024105
ISAAC,2012,29.9850007729,-90.1941648373,28.9984553836,-89.6859444852,69.7557345996,962.6291374747,5.0622733109,0.9656762657
ISAAC,2012,30.0786047541,-90.4757233731,29.188941802,-90.1658407718,69.9734906211,965.6341705715,5.0780761765,0.968690811
ISAAC,2012,29.9819520214,-90.1849942659,29.2944296919,-90.1750301741,64.7665962577,964.5240796527,5.0617585998,0.9655780797
ISAAC,2012,30.0007143452,-90.2414308867,29.611871587,-90.5305703736,59.8219628019,970.1128301045,5.0649261839,0.9661823261
ISAAC,2012,30.2084670739,-90.8663461236,30.2185064448,-91.4586690074,55.2165400154,980.8465380922,5.1000004232,0.9728730673
ISAAC,2012,29.9545219751,-90.9333702816,29.1673074488,-90.2268957067,70.6474574885,975.9441627339,5.1370794088,0.9780209945
ISAAC,2012,29.7491352251,-90.3098747904,29.0675512644,-89.9089430488,70.1630547761,967.2478265566,5.1018564116,0.971315077
ISAAC,2012,29.4549030842,-89.4166700771,28.8793018784,-89.3174284899,69.4691110477,958.6737324583,5.051396789,0.9617083401
ISAAC,2012,29.8047538586,-90.4787170707,29.322736276,-90.5791374004,70.2942307985,970.0603850195,5.1113947823,0.9731310362
ISAAC,2012,29.848604998,-90.6118366012,29.5670143848,-91.0141089057,65.3692494903,973.4989770249,5.1189150755,0.9745627845
ISAAC,2012,29.9576162412,-90.9427635894,29.9778033142,-91.6493111423,60.5612188165,982.1010984739,5.1376100629,0.9781220229
ISAAC,2012,29.5968660743,-89.847629154,30.0156896508,-90.8448281457,54.8459445446,974.2634149111,5.0757428679,0.9663434595
ISAAC,2012,30.0838234961,-89.7322674276,28.8557085641,-89.2629877382,69.8927197055,965.5179993603,5.1820459325,0.967572644
ISAAC,2012,30.1796620221,-90.0181289721,29.0477994903,-89.8478487681,70.1153780799,966.5905692448,5.1985544605,0.9706550559
ISAAC,2012,30.1845201825,-90.0326196084,29.1526563993,-90.1628548432,70.126664878,967.7479753168,5.199391296,0.9708113068
ISAAC,2012,30.3613809396,-90.5601495201,29.4242390785,-90.8926837289,70.5375594348,973.4183202006,5.2298561924,0.9764996007
ISAAC,2012,30.1843323218,-90.0320592686,29.4530159396,-90.6631953244,65.1172121115,969.7455588292,5.1993589363,0.9708052647
ISAAC,2012,29.9913036461,-89.4563046356,29.5632830497,-90.3820235998,59.7238041409,968.5210238175,5.1661090582,0.9645969692
ISAAC,2012,30.2351908338,-90.1837570605,30.2050860968,-91.4180512764,55.1920177849,980.4109341056,5.2081194964,0.9724410044
ISAAC,2012,29.9904504244,-90.2405474705,28.8139633399,-89.1338519928,69.7916067057,964.1211954921,5.4337750935,0.9661728677
ISAAC,2012,30.0565779072,-90.4395234835,28.97741886,-89.6301541981,69.9454938001,964.248593101,5.445756303,0.9683032318
ISAAC,2012,30.361454717,-91.3568905065,29.3722849822,-90.8421185017,70.6549810568,975.0387385845,5.5009949537,0.9781251484
ISAAC,2012,30.2633628206,-91.0617343382,29.3779984828,-90.7498446283,70.4267086916,971.8885799436,5.4832223196,0.9749650182
ISAAC,2012,30.042193509,-90.3962411735,29.363048177,-90.3862537421,64.9183037927,966.7833549434,5.4431500872,0.9678398238
ISAAC,2012,30.3049080685,-91.1867429947,29.9220668097,-91.4789113238,60.4486198175,980.2751180404,5.4907496334,0.9763034406
ISAAC,2012,30.0439814722,-90.4016211119,30.0639575237,-90.9909146314,54.9341416545,975.8301162999,5.4434740367,0.9678974249
ISAAC,2012,30.2193170595,-90.8989826205,29.0242028255,-89.7842122006,70.3008372935,971.1558523261,5.5437231694,0.9732224945
ISAAC,2012,30.0844243931,-90.4932287079,28.9946263676,-89.683378799,69.9870291631,964.8211877483,5.5189771569,0.9688782342
ISAAC,2012,30.2075233608,-90.8635074571,29.2136566899,-90.3515155357,70.2734009722,969.7729334165,5.5415596195,0.9728426747
ISAAC,2012,30.262716955,-91.0295284678,29.3676083445,-90.7177490642,70.4018008259,971.5448513968,5.5516848651,0.9746202016
ISAAC,2012,30.241605296,-90.9660251028,29.5481288037,-90.9559747188,65.3274956544,972.8771660532,5.5478119387,0.973940294
ISAAC,2012,30.2204253433,-90.9023163117,29.8287348852,-91.193573319,60.2600704751,977.2174762051,5.5439264837,0.9732581871
ISAAC,2012,29.9042465401,-89.9512580373,29.9141848075,-90.5376158126,54.6604705784,970.9687228199,5.4859235926,0.9630755505
ISAAC,2012,29.9181531484,-90.0627914756,28.7445021938,-88.9189791046,69.623361715,961.7970111204,5.5698689372,0.9638437374
ISAAC,2012,29.9917596435,-90.2843695384,28.9149278477,-89.4368630325,69.7946534256,962.1691507958,5.583572274,0.9662150455
ISAAC,2012,30.2303193355,-91.0025071751,29.2454219635,-90.44975865,70.3498122833,970.8274095102,5.6279849827,0.9739004887
ISAAC,2012,30.3547219016,-91.3769969479,29.4666848247,-91.0238003832,70.639312936,974.8225185162,5.6511450349,0.9779082439
ISAAC,2012,29.8898605795,-89.9776221899,29.214158944,-89.9279382461,64.5891269171,961.8811516267,5.5646017036,0.9629322635
ISAAC,2012,30.0421570264,-90.4360810751,29.6626350958,-90.6857665557,59.9245153451,971.7758905138,5.5929547655,0.9678386485
ISAAC,2012,29.9829547014,-90.2578639699,30.0028901766,-90.8060895379,54.8225568012,973.8479635407,5.5819330561,0.9659313854
ISAAC,2012,29.8130686848,-89.4888613987,28.7007889737,-88.7837555104,69.5174819433,960.3343577022,5.6011228309,0.9623779714
ISAAC,2012,29.7391402955,-89.266953099,28.7286831636,-88.8607889577,69.3450972914,955.9716983742,5.5872335532,0.959991533
ISAAC,2012,30.2999878385,-90.9504298509,29.3714072651,-90.8394039128,70.6528697099,975.0096019969,5.6926026452,0.9780959196
ISAAC,2012,30.1363916271,-90.4593687382,29.3132123755,-90.5497176804,70.2713995303,969.7453135175,5.6618670479,0.9728149674
ISAAC,2012,29.80631168,-89.4685791301,29.1907249631,-89.8558030326,64.5373170953,961.1095838187,5.5998533603,0.9621598526
ISAAC,2012,30.0460481585,-90.1881878601,29.7257704966,-90.8787865686,60.0520616092,973.8442657628,5.6448937913,0.9698986435
ISAAC,2012,30.0899895629,-90.3200852602,30.1701760774,-91.312393377,55.1282287128,979.2778082253,5.6531492716,0.9713170899
ISAAC,2012,30.1431218656,-89.6106388685,28.8551249393,-89.261182338,69.8913060812,965.4984711509,5.6611957926,0.9675530742
ISAAC,2012,30.3917798754,-90.34985902,29.1938263129,-90.2995248367,70.4678566173,971.4497376525,5.707896386,0.975534657
ISAAC,2012,29.8934052833,-88.8682717514,28.8141137378,-89.1158156839,69.3123010875,956.5097550071,5.6142963881,0.9595375128
ISAAC,2012,30.267001361,-89.9789126251,29.2744763081,-90.4300603764,70.1785390948,968.463839508,5.6844616667,0.971529437
ISAAC,2012,30.1708197781,-89.6929802944,29.3813216786,-90.4425038066,64.9587043915,967.3850130913,5.6663977523,0.9684421394
ISAAC,2012,29.9806486093,-89.1276320862,29.4940464954,-90.1703509017,59.5839323139,966.2527690235,5.6306816037,0.9623379045
ISAAC,2012,30.1624807355,-89.6681896657,30.0725627737,-91.0169590925,54.9498655333,976.1094295646,5.6648315923,0.9681744676
ISAAC,2012,29.9634864587,-90.0597446104,28.7784898191,-89.0241172952,69.705684683,962.934244121,5.725824099,0.9649833905
ISAAC,2012,29.8793615605,-89.8068946339,28.7969918663,-89.0720748415,69.5099803668,958.2447293428,5.7097483873,0.962274122
ISAAC,2012,30.362057985,-91.2577110057,29.3631069247,-90.8137327567,70.6329032552,974.7340649216,5.8019884817,0.9778195103
ISAAC,2012,30.2277098132,-90.8539074613,29.3336366416,-90.6128090779,70.3203618121,970.4209930076,5.7763154346,0.9734927857
ISAAC,2012,30.3618871956,-91.2571976726,29.6656524942,-91.3177398206,65.587326943,976.7466535507,5.801955845,0.97781401
ISAAC,2012,30.2366965803,-90.8809185352,29.8447952288,-91.2426736289,60.2925156138,977.7436282035,5.7780327463,0.9737822073
ISAAC,2012,30.1029065864,-90.4787926777,30.1129108757,-91.1390757734,55.0235913012,977.419067295,5.7524663633,0.969473459
ISAAC,2012,29.9547810086,-90.0733993239,28.7701286523,-88.9982526476,69.6854327219,962.6544777433,5.9730370904,0.9647030288
ISAAC,2012,30.0752128142,-90.435535242,28.985748475,-89.6559185589,69.9655997673,964.52576822,5.9970514086,0.9685815725
ISAAC,2012,30.2729958907,-91.0302648119,29.2769750887,-90.5473456351,70.4257132718,971.8748431505,6.036489709,0.9749512379
ISAAC,2012,30.3626353136,-91.2998086798,29.4645713246,-91.0172716945,70.6342463261,974.7525993007,6.0543639708,0.9778381034
ISAAC,2012,30.1136263848,-90.5510440444,29.4230846033,-90.5710597482,65.0510373882,968.7600644889,6.0047111435,0.9698186934
ISAAC,2012,30.2913234432,-91.0853753785,29.8987140666,-91.4075164055,60.4014425587,979.5100601601,6.0401442559,0.9755414824
ISAAC,2012,29.8584393947,-89.7837021081,29.8683624387,-90.3989308361,54.5767419976,969.4813987582,5.9538263997,0.9616003172
ISAAC,2012,29.9055033708,-89.0221866509,28.6656400469,-88.6750249203,69.4323461344,959.1582673143,6.0406141137,0.9611993783
ISAAC,2012,30.4153079214,-90.5397640445,29.2551883821,-90.4893240645,70.6159719567,973.4916134032,6.1435895602,0.9775851188
ISAAC,2012,30.3357465941,-90.3029272577,29.2792778072,-90.554467445,70.4312524573,971.9512839101,6.1275189638,0.9750279206
ISAAC,2012,30.2995871914,-90.1952885715,29.3448738305,-90.6475212162,70.3473002786,970.7927438448,6.1202151242,0.9738657133
ISAAC,2012,30.1744812745,-89.8228754356,29.4238722875,-90.5734844225,65.052778867,968.7859991271,6.0949449738,0.9698446564
ISAAC,2012,30.4350184151,-90.5984379022,29.9807644089,-91.6583639167,60.567200826,982.1981067284,6.1475708838,0.9782186381
ISAAC,2012,30.0495320488,-89.4509287357,29.9996986623,-90.7964301707,54.8167251305,973.7443718633,6.0697064735,0.9658286358
ISAAC,2012,30.3930473535,-90.3346114692,29.0558739172,-89.8821843667,70.3775492804,972.2155736304,6.1831704011,0.9742844709
ISAAC,2012,30.0953803805,-89.4498818123,28.8708577914,-89.3005497893,69.6882774275,960.7026816795,6.1226129454,0.96474241
ISAAC,2012,30.354606877,-90.220358184,29.2199490613,-90.3709764781,70.2885372608,969.9818141987,6.1753500593,0.9730522167
ISAAC,2012,30.187828749,-89.7246580582,29.1592656127,-90.0741698036,69.9023490715,964.6524171871,6.1414206684,0.9677059499
ISAAC,2012,30.2496407251,-89.908376419,29.419101466,-90.5587987304,65.0422311323,968.6289190164,6.1539957148,0.9696874047
ISAAC,2012,30.4029253077,-90.3639708533,29.8698935375,-91.3194051584,60.3432192677,978.5658724574,6.1851799749,0.9746011202
ISAAC,2012,30.169810274,-89.6711033119,30.0400691117,-90.9186144876,54.8904917324,975.0547349551,6.1377549846,0.9671283467
ISAAC,2012,30.0713114339,-89.2503012627,28.7103039458,-88.8131893687,69.5405285885,960.6527306438,6.6361532996,0.9626970219
ISAAC,2012,30.0537498686,-89.1981793259,28.7928228011,-89.0591794917,69.4999171061,958.1060001054,6.6322778038,0.9621348094
ISAAC,2012,30.4705573391,-90.4352451715,29.2928053705,-90.5963052697,70.4637929876,972.4003432284,6.7242591022,0.9754784014
ISAAC,2012,30.2613828319,-89.8144246322,29.1916874361,-90.1743221485,69.9800726208,965.7250021673,6.6780983587,0.9687819301
ISAAC,2012,30.1411864787,-89.4576872563,29.2748887504,-90.1148786364,64.7233934958,963.8806908295,6.6515733623,0.9649339878
ISAAC,2012,30.1475562215,-89.4765923668,29.5798619022,-90.4327091152,59.7572967721,969.0641626547,6.6529790406,0.9651379075
ISAAC,2012,30.5256778056,-90.5988402397,30.354241888,-91.8694829234,55.4645615893,985.2523031408,6.7364231167,0.9772430171
ISAAC,2012,30.2093607792,-89.610125681,28.8421052699,-89.2209069594,69.8597705499,965.0628303102,6.6865780383,0.9671165064
ISAAC,2012,30.1793054817,-89.5209725537,28.9131106366,-89.4312422103,69.7902670537,962.1086815266,6.6799255609,0.966154322
ISAAC,2012,30.4141778326,-90.2176751765,29.2386050522,-90.4286754191,70.3334142149,970.6011161652,6.7319125034,0.973673479
ISAAC,2012,30.2971931239,-89.8706630524,29.226231887,-90.2810313768,70.0628846605,966.8678083151,6.7060189604,0.9699283537
ISAAC,2012,30.5270087948,-90.5523660286,29.6496220207,-91.2683943155,65.55188542,976.2188474849,6.756886651,0.9772856272
ISAAC,2012,30.4826031403,-90.4206453903,29.9085997115,-91.4377391852,60.4214135585,979.8339232074,6.7470578474,0.9758640333
ISAAC,2012,30.1356887884,-89.3915922138,29.9664430965,-90.6957796043,54.7559591464,972.6649470191,6.6702713869,0.9647579858
ISAAC,2012,30.1569399344,-89.4546295576,28.7920569575,-89.0660862284,69.7385462639,963.388203388,6.7746016371,0.9654383158
ISAAC,2012,30.532315308,-90.568106756,29.2513096773,-90.4773268294,70.6066095659,973.3625461582,6.8589277864,0.9774555088
ISAAC,2012,30.2715317039,-89.7945434981,29.1014725002,-90.0045541244,70.0035420968,966.0488809357,6.8003440894,0.9691068341
ISAAC,2012,30.4323016895,-90.2714360324,29.3565645634,-90.6836343704,70.3753260081,971.1794989115,6.8364602408,0.9742536926
ISAAC,2012,30.2432703023,-89.7107116103,29.3740385493,-90.4200846501,64.9426022349,967.1452148206,6.7939953107,0.9682020791
ISAAC,2012,30.5641864737,-90.6626462991,29.9886467879,-91.6824622336,60.583124824,982.4563408952,6.86608748,0.978475826
ISAAC,2012,30.1567674253,-89.4541178433,29.9874033532,-90.7592174576,54.7942586188,973.3452849189,6.7745628838,0.9654327931
ISAAC,2012,29.9911871025,-89.5847128045,28.8146711191,-89.1360414549,69.7933210497,964.1448779296,6.8497159373,0.9661966005
ISAAC,2012,30.0470759996,-89.7516548724,28.9682581113,-89.6018190545,69.9233816479,963.9437612891,6.862480456,0.9679971182
ISAAC,2012,30.2085770663,-90.2340641424,29.2243880528,-90.3847053179,70.2992152473,970.1291704122,6.8993658393,0.9732000394
ISAAC,2012,29.9713012695,-89.5253131337,29.0944812855,-89.8740483546,69.7470441776,962.5092096513,6.8451741929,0.9655559582
ISAAC,2012,30.1627774892,-90.0972592222,29.4809061896,-90.7490479645,65.1788742286,970.663850051,6.88890563,0.9717245594
ISAAC,2012,29.8882549108,-89.2772507891,29.5106772224,-90.22119501,59.6175297423,966.797607321,6.8262071555,0.9628805353
ISAAC,2012,29.9677274665,-89.5146380606,29.9876528172,-90.7599724799,54.79471445,973.3533821393,6.8443579686,0.9654408245
ISAAC,2012,30.1955167922,-89.6189371857,28.8288878525,-89.180019862,69.827756044,964.6205727798,6.8830216672,0.9666733077
ISAAC,2012,30.2617662898,-89.8155627181,28.9921117412,-89.6756007994,69.9809593752,964.7375113865,6.8981231384,0.968794206
ISAAC,2012,30.3123100435,-89.9655743081,29.1406746702,-90.1257979489,70.0978428492,967.3502313184,6.9096445094,0.9704123038
ISAAC,2012,30.5560742115,-90.6890554068,29.4759619087,-91.0524576769,70.6615525209,975.1294247884,6.9652101771,0.9782161217
ISAAC,2012,30.1341532124,-89.4368128379,29.2680576295,-90.0938508663,64.7082906775,963.6557750122,6.8690339335,0.9647088262
ISAAC,2012,29.9755792238,-88.9661723641,29.4111233216,-89.9168349362,59.4164107508,963.5361276749,6.8328872363,0.9596322698
ISAAC,2012,30.0798606505,-89.2756749536,29.9109284962,-90.5277603325,54.6545205081,970.8630279345,6.8566580274,0.9629707148
ISAAC,2012,29.8159072904,-90.6581105297,29.1501935281,-90.1739550663,70.6060050854,975.3715273945,7.1614662301,0.9774471406
ISAAC,2012,29.5718830665,-89.9161315973,29.0116579475,-89.7360592376,70.0281398733,965.3879282529,7.1028541871,0.9694473579
ISAAC,2012,29.2826636307,-89.0367323114,28.8269794199,-89.1556064533,69.3432494637,956.9368425988,7.0333867313,0.9599659523
ISAAC,2012,29.3323063441,-89.1876757176,28.9750793386,-89.5052108336,69.4608066336,958.5591315438,7.0453103871,0.9615933764
ISAAC,2012,29.4391684458,-89.5126001323,29.2798224732,-90.1300657763,64.7343013863,964.0431344913,7.070977536,0.9650966089
ISAAC,2012,29.3220610837,-89.1565240257,29.4609341741,-90.0691186197,59.5170387355,965.1679781602,7.0428495837,0.9612575087
ISAAC,2012,29.7666163339,-90.5082366742,30.3103907865,-91.7367641413,55.384434992,983.828963403,7.1496270626,0.975831248
ISAAC,2012,29.844520437,-89.7120928389,28.6642286683,-88.6706589254,69.4289275702,959.1110422914,7.1214242851,0.9611520528
ISAAC,2012,30.3772433305,-91.3134482965,29.2768380387,-90.5562886921,70.6682297485,974.2120243905,7.2485412799,0.9783085591
ISAAC,2012,30.2549989452,-90.9459838681,29.259570266,-90.4935162867,70.3838460008,971.2970748104,7.2193716326,0.9743716407
ISAAC,2012,29.941278917,-90.0029470934,29.0556777792,-89.7541827289,69.6540220734,961.2255046132,7.1445125498,0.9642681897
ISAAC,2012,29.8776274188,-89.8116118323,29.1924973783,-89.8612589367,64.5412357004,961.1679408921,7.1293241897,0.9622182734
ISAAC,2012,29.8615070554,-89.7631543091,29.4744685791,-90.1104965314,59.5443809679,965.6113780291,7.1254775892,0.9616991121
ISAAC,2012,30.2940913429,-91.0634949142,30.3041591699,-91.7179036671,55.3730483171,983.6266946513,7.2286997621,0.9756306235
ISAAC,2012,30.2499369269,-89.8606944046,28.8713070405,-89.3112404644,69.9305014822,966.0399276179,7.2228217959,0.9680956829
ISAAC,2012,30.130767953,-89.5066901379,28.857076309,-89.2579222386,69.6550117804,960.2440909732,7.1943676453,0.9642818909
ISAAC,2012,30.269808745,-89.9197257798,29.0902058943,-89.9697089514,69.9764402955,965.6748760784,7.2275666191,0.9687316453
ISAAC,2012,30.3535561361,-90.1685064215,29.2709326015,-90.4191137212,70.1700439078,968.3466059277,7.2475631065,0.9714118323
ISAAC,2012,29.990168399,-89.0890240255,29.1185915103,-89.633759581,64.3778383731,958.7345776177,7.1607964837,0.9597822511
ISAAC,2012,30.4251487709,-90.3811800509,29.8423685104,-91.2352545706,60.2876131524,977.6641266208,7.2646573849,0.9737030279
ISAAC,2012,30.0894130538,-89.3838409573,29.9105460013,-90.5266026816,54.653821597,970.850612732,7.1844932754,0.9629584005
ISAAC,2012,29.8156722671,-89.6749956784,28.6460415066,-88.6143982939,69.3848756216,958.5024960869,7.3448846908,0.9605422116
ISAAC,2012,30.2406107293,-90.9530602621,29.1548441207,-90.1789488837,70.3737616707,970.1525716026,7.4495653426,0.9742320364
ISAAC,2012,30.0028250745,-90.2378851228,29.0253394172,-89.769090981,69.8204040963,963.5215765296,7.3909884908,0.9665715297
ISAAC,2012,29.7842923857,-89.5806160948,28.9129434063,-89.3132703852,69.3118506315,956.5035387153,7.337154474,0.9595312768
ISAAC,2012,29.8758154292,-89.855885036,29.2004313038,-89.8856813945,64.5587766921,961.4291667385,7.3597005429,0.9624797847
ISAAC,2012,30.2189058285,-90.8877795978,29.8371510341,-91.2193034982,60.2770727961,977.4931971776,7.4442184903,0.9735327909
ISAAC,2012,29.9322291379,-90.0255575167,29.952130886,-90.6524625817,54.7298072667,972.2003945375,7.3735976699,0.9642972097
ISAAC,2012,30.4332462248,-90.4829418074,29.1425054969,-90.1501727135,70.5873835564,975.1142842727,7.5629339525,0.97718935
ISAAC,2012,30.3208609516,-90.1488022925,29.1353534658,-90.1186622717,70.3267152622,969.5040032575,7.5350052067,0.9735807409
ISAAC,2012,30.0422067636,-89.3203185189,28.9671377343,-89.5890857762,69.6804000481,961.5895206644,7.465757148,0.964633358
ISAAC,2012,30.2901901462,-90.0576130491,29.3066120699,-90.5293290653,70.25557688,969.5269609434,7.5273832371,0.9725959237
ISAAC,2012,30.1270706109,-89.5726324027,29.3484385672,-90.3412819842,64.8860036351,966.3023310577,7.4868465733,0.9673582743
ISAAC,2012,30.1980288718,-89.7836027392,29.7177421303,-90.8542419337,60.0358426875,973.5812489156,7.5044803359,0.9696366923
ISAAC,2012,30.3488623305,-90.2320549012,30.2684147166,-91.6097202886,55.3077345321,982.4664843244,7.5419637998,0.9744798447
ISAAC,2012,29.9219344186,-90.0145722484,28.7576955337,-88.9597917202,69.6553179017,962.2384630135,7.6720357289,0.9642861287
ISAAC,2012,29.9239766185,-90.0207158266,28.8591726616,-89.2644064741,69.6600719419,960.3138489129,7.6725593525,0.9643519422
ISAAC,2012,30.1859009085,-90.808666318,29.2121621695,-90.3468933078,70.2698059061,969.7233215035,7.7397171934,0.9727929058
ISAAC,2012,30.3536207751,-91.3132203299,29.4754149197,-91.0507680053,70.6602412458,975.1113291915,7.7827208572,0.9781979688
ISAAC,2012,30.3500372383,-91.3024399262,29.6737976324,-91.34281244,65.6053349017,977.0148336123,7.7818020322,0.9780824831
ISAAC,2012,30.2360087096,-90.9594063144,29.8639660351,-91.3012833666,60.3312445154,978.3716818913,7.7525649202,0.9744077164
ISAAC,2012,29.8716328181,-89.8632492427,29.9014349127,-90.4990272607,54.6371734286,970.5548807217,7.6591383115,0.9626650726
ISAAC,2012,29.551449939,-89.6926440039,28.8525980823,-89.253365694,69.8851856665,965.4139219924,7.7872064028,0.9674683452
ISAAC,2012,29.395522299,-89.2193825454,28.7996671173,-89.0803496697,69.5164378693,958.3337506272,7.7461173626,0.9623635176
ISAAC,2012,29.3213096291,-88.9941370635,28.8260172367,-89.1526306291,69.3409349337,956.9049020857,7.7265613212,0.9599339106
ISAAC,2012,29.8529204453,-90.60764773,29.4495026015,-90.9707237895,70.5981226748,974.254092912,7.8666479552,0.977338019
ISAAC,2012,29.5601585749,-89.719075891,29.3604277738,-90.3781875349,64.9125103842,966.6970777209,7.7895012461,0.9677534523
ISAAC,2012,29.5491621872,-89.6857003681,29.6489904378,-90.6440515741,59.8969503794,971.3288786523,7.7866035493,0.9673934477
ISAAC,2012,29.7382494632,-90.2596058032,30.2405847582,-91.5254907466,55.2568824485,981.5631664042,7.8364306018,0.97358387
ISAAC,2012,30.6305708905,-90.8619439731,29.1767797869,-90.25619768,70.670400868,976.2611091336,7.9857552981,0.9783386154
ISAAC,2012,30.3311216484,-89.9736634264,28.9915137707,-89.673751215,69.9795159983,964.7176134054,7.9076853078,0.9687742244
ISAAC,2012,30.4604329698,-90.3572500753,29.2155108577,-90.3572500753,70.2778611697,969.8344841413,7.9413983122,0.9729044203
ISAAC,2012,30.1639060689,-89.4776383058,29.0305226503,-89.6764775021,69.5937186823,960.3933178158,7.8640902111,0.9634333687
ISAAC,2012,30.5736712759,-90.6931580365,29.6264316252,-91.1970089145,65.5006141375,975.45529977,7.9709208896,0.9765212451
ISAAC,2012,30.4029032329,-90.186594956,29.7615763355,-90.9882535778,60.1243966373,975.0172988019,7.9263996234,0.9710669239
ISAAC,2012,30.5688198737,-90.6787669294,30.3270098286,-91.7870629696,55.4148020124,984.3683921109,7.9696560712,0.9763662916
ISAAC,2012,29.5687592798,-89.9387269723,28.9575446691,-89.5780101529,70.1393815515,968.9254565759,7.9858695852,0.9709873524
ISAAC,2012,29.3571101534,-89.2949578912,28.8497524381,-89.2352687482,69.6373334713,960.000382854,7.9287078252,0.964037158
ISAAC,2012,29.4362520976,-89.5356824221,29.0272767211,-89.7750826425,69.8250642775,963.5858870297,7.9500823185,0.9666360437
ISAAC,2012,29.4332645777,-89.5265953404,29.1240706767,-89.9654511999,69.8179776496,963.4880915648,7.9492754553,0.9665379387
ISAAC,2012,29.3595415144,-89.3023533152,29.2501023559,-90.0385803813,64.668593644,963.0645945759,7.9293644822,0.9641169997
ISAAC,2012,29.5870494615,-89.9943598667,29.7775455441,-91.0370752663,60.1566576649,975.540465133,7.9908093598,0.9715879706
ISAAC,2012,29.3986271176,-89.4212392434,29.9864004147,-90.7561819861,54.792426007,973.3127310697,7.9399206414,0.9654005039
ISAAC,2012,30.097009435,-89.2798639565,28.6496565439,-88.6255811427,69.3936317672,958.6234559843,7.9505275253,0.9606634289
ISAAC,2012,30.5563235216,-90.6423747154,29.1875290556,-90.2800467685,70.4526563411,971.2401909874,8.0718614836,0.9753242292
ISAAC,2012,30.571408634,-90.6871232404,29.3026347579,-90.6267054368,70.4874375619,972.7266383546,8.0758464178,0.9758057294
ISAAC,2012,30.5503414714,-90.6246295428,29.3830688724,-90.7655072702,70.4388637352,972.0563195461,8.0702812451,0.9751332887
ISAAC,2012,30.1363299825,-89.3965045529,29.1834025522,-89.8332629584,64.5211280917,960.8684921961,7.9609145738,0.9619184975
ISAAC,2012,30.6538038058,-90.9315405386,29.9874167666,-91.6787017644,60.5806399324,982.4160442376,8.0976122043,0.9784356926
ISAAC,2012,30.2852638612,-89.8383024816,30.025903894,-90.8757423504,54.8646084443,974.594953637,8.0002574495,0.9666723031
ISAAC,2012,30.121945914,-89.3508266804,28.7586467431,-88.9627342157,69.6576218691,962.2702906781,8.2395015582,0.9643180241
ISAAC,2012,30.3772329809,-90.108085542,29.1027339427,-90.0177667126,70.2479784825,968.4185605087,8.3093323119,0.9724907338
ISAAC,2012,30.1829408053,-89.5317560259,29.0163058286,-89.7411520474,69.7986738146,963.2216986417,8.2561859884,0.9662707025
ISAAC,2012,30.0897127723,-89.2552134068,29.0260856607,-89.6627714589,69.5830820634,960.2465324755,8.2306845641,0.9632861187
ISAAC,2012,30.4331388732,-90.2739193732,29.5584500454,-90.9877458879,65.3503147261,973.2169946905,8.3246247066,0.974280494
ISAAC,2012,30.4700616328,-90.3834434757,29.8962943672,-91.400118806,60.3965542771,979.4307885267,8.3347244902,0.975462532
ISAAC,2012,30.2953470143,-89.8651869314,30.1252046624,-91.1762838785,55.0460550309,977.818104822,8.2869333756,0.9698692527
ISAAC,2012,30.4261749789,-90.1836246157,29.0299259456,-89.8019162468,70.3146995221,971.347349113,8.5382135134,0.9734143988
ISAAC,2012,30.0721033841,-89.1341512652,28.7913832334,-89.0547267597,69.4964422874,958.0580972479,8.4388537063,0.9620867051
ISAAC,2012,30.0792915617,-89.1554571282,28.8975696417,-89.3739267268,69.5130541209,959.280146868,8.4408708575,0.9623166741
ISAAC,2012,30.1154565392,-89.2626506468,29.0317375684,-89.6802304338,69.596631157,960.4335099671,8.4510194976,0.9634736881
ISAAC,2012,30.170655342,-89.4262607,29.2841620025,-90.1434238511,64.7438955837,964.1860142307,8.4665094225,0.9652396448
ISAAC,2012,30.3427167556,-89.9362532295,29.7516899189,-90.9580284388,60.1044240785,974.6934104732,8.5147934111,0.9707443478
ISAAC,2012,30.3678804493,-90.0108387832,30.1773919289,-91.3342327149,55.1414138235,979.5120237376,8.5218548636,0.9715494014
ISAAC,2012,30.2504096563,-90.3689490997,29.0733900588,-89.9363692476,70.4199759209,972.8016673651,8.6616570383,0.9748718118
ISAAC,2012,30.3376241359,-90.6294903933,29.2581010955,-90.4983333884,70.6230026442,973.5885364524,8.6866293252,0.9776824494
ISAAC,2012,29.8354059411,-89.1291824308,28.8729734914,-89.2978561591,69.4538881237,958.4636561074,8.5428282392,0.9614975988
ISAAC,2012,30.2052944102,-90.2341734907,29.3313800059,-90.6058382373,70.3149520689,970.3463385506,8.6487391045,0.9734178949
ISAAC,2012,30.2901999545,-90.4878171571,29.6152936037,-91.162723508,65.4759892599,975.0885785163,8.6730502697,0.9761541231
ISAAC,2012,29.8581292653,-89.1970652444,29.4907362547,-90.1602307046,59.577244959,966.1443224178,8.5493346516,0.9622298972
ISAAC,2012,29.9053270684,-89.3380622067,29.9351627788,-90.6011072808,54.6988024198,971.6496357118,8.5628488879,0.9637509281
ISAAC,2012,30.4548909263,-90.3227949315,28.9521824925,-89.5614226584,70.1263935804,968.7460370318,8.6756366915,0.970807551
ISAAC,2012,30.3887476253,-90.1266278257,28.9892658268,-89.6667980919,69.9740899268,964.6428111333,8.6567945538,0.9686991075
ISAAC,2012,30.690668855,-91.0220626304,29.3782389368,-90.8605327944,70.6693032845,975.2363853261,8.7428023778,0.9783234208
ISAAC,2012,30.3020319773,-89.8694474696,29.1058991361,-89.9093185643,69.7744157373,962.8869371745,8.6320920041,0.9659348814
ISAAC,2012,30.2440413591,-89.6974595044,29.2491715775,-90.0357152301,64.6665358006,963.0339485385,8.6155723082,0.9640863202
ISAAC,2012,30.62928027,-90.8399970112,29.9240007901,-91.4848239642,60.4525268486,980.3384770616,8.7253147085,0.9763665429
ISAAC,2012,30.5148551626,-90.5006362323,30.2137217235,-91.4441876748,55.2077971692,980.6912333511,8.6927186088,0.9727190251
ISAAC,2012,30.6243339016,-90.7954601962,29.1036912119,-90.0301036107,70.4933697175,973.8155502406,8.9325169913,0.9758878523
ISAAC,2012,30.3142005682,-89.8759724838,28.908642436,-89.4174216037,69.7794817421,961.9599983011,8.8420571865,0.9660050136
ISAAC,2012,30.5115852025,-90.4611812514,29.1972091217,-90.3006467683,70.2338363753,969.2269419797,8.8996304093,0.972294955
ISAAC,2012,30.1243596855,-89.3131295378,28.9257251831,-89.3527538189,69.3424918772,956.9263879051,8.7866843279,0.9599554645
ISAAC,2012,30.3475192591,-89.9747562119,29.3395944169,-90.3140576439,64.8664502415,966.0111359037,8.8517755945,0.9670667609
ISAAC,2012,30.4477749671,-90.271995759,29.7368930129,-90.9127907599,60.0745313392,974.2086498833,8.8810182163,0.9702615513
ISAAC,2012,30.4545375288,-90.2920454981,30.1440835126,-91.2334221925,55.0805512688,978.4308834474,8.8829907228,0.9704770499
ISAAC,2012,29.9636056823,-88.8897174193,28.6453259748,-88.6121848493,69.3831424995,958.4785542426,8.8017472199,0.9605182188
ISAAC,2012,30.2048303633,-89.6053320206,28.975854467,-89.6253153685,69.9417176789,964.196536573,8.8726064713,0.9682509564
ISAAC,2012,30.5162305922,-90.5291286639,29.375531268,-90.852158561,70.6627899919,975.1465018876,8.9640796447,0.9782332528
ISAAC,2012,29.9597083757,-88.8781557108,28.9389177827,-89.3935063014,69.3741179723,957.3628280176,8.8006023942,0.9603932861
ISAAC,2012,30.2185251744,-89.6459589032,29.3888402292,-90.4656476443,64.9753270373,967.6325626484,8.8766292937,0.9686899595
ISAAC,2012,30.2979897661,-89.8816977249,29.7667977523,-91.0042166973,60.1349449542,975.1883573404,8.8999718532,0.9712372894
ISAAC,2012,30.4972904682,-90.4729410913,30.3661410219,-91.9054965814,55.4863041929,985.6385308453,8.9585160224,0.9776261051
ISAAC,2012,30.4101727487,-90.18154711,28.871681749,-89.3123995971,69.9314090805,966.0524654408,9.2609166025,0.9681082475
ISAAC,2012,30.7358002728,-91.1471974583,29.281807093,-90.5716584913,70.6802240177,974.3773739584,9.3600810949,0.9784746039
ISAAC,2012,30.3295320053,-89.9424065084,28.9943949196,-89.6733863494,69.7459671606,962.4943468166,9.236358794,0.9655410483
ISAAC,2012,30.2777962899,-89.7889839384,29.0444037997,-89.719356943,69.6269954103,960.8525366623,9.2206035351,0.9638940412
ISAAC,2012,30.5662688349,-90.6444509765,29.521954788,-90.8754050446,65.2696279326,972.0153821345,9.3084530913,0.9730775684
ISAAC,2012,30.2031117542,-89.5675065063,29.4688705355,-90.0933819738,59.5330717888,965.4279808421,9.1978595914,0.961516458
ISAAC,2012,30.578179464,-90.6797720176,30.2366360666,-91.5135397231,55.2496672313,981.4349979084,9.312080277,0.9734567434
ISAAC,2012,30.5128441531,-90.4286075727,29.1607538368,-90.2066225954,70.6315836876,975.7248775136,9.3637299517,0.9778012426
ISAAC,2012,30.1617270761,-89.3880284577,28.9249366801,-89.4678213865,69.8188126762,962.5022033221,9.2559797376,0.9665494985
ISAAC,2012,30.5329232852,-90.4881145773,29.3818805423,-90.8717954916,70.6780631601,975.3572716097,9.3698918018,0.9784446897
ISAAC,2012,29.9577773568,-88.7835981058,28.9274834266,-89.3581851054,69.3467068445,956.9845544545,9.1933919931,0.9600138151
ISAAC,2012,30.5043689685,-90.4034903093,29.657025386,-91.2911835862,65.5682534044,976.4626045459,9.3611291014,0.9775296506
ISAAC,2012,29.9533775777,-88.7705588133,29.4184958353,-89.9393744728,59.4313047177,963.7776581719,9.1920417963,0.9598728217
ISAAC,2012,30.1043191991,-89.2178930761,29.9649473509,-90.6912526136,54.7532260565,972.6163974036,9.2383625055,0.9647098309
ISAAC,2012,30.4946197932,-90.3745974161,29.1433370378,-90.1527450234,70.5893976693,975.1421078036,9.3984740897,0.9772172328
ISAAC,2012,30.4021898839,-90.1006698873,29.1555392405,-90.181098961,70.375439546,970.1757023122,9.3699870938,0.9742552644
ISAAC,2012,30.0417481463,-89.0324559811,28.9092219265,-89.409964721,69.5410836719,959.6669546719,9.2588985689,0.9627047063
ISAAC,2012,30.4815066329,-90.3357349352,29.4332008492,-90.9203670069,70.5590431317,973.7147952179,9.3944325998,0.9767970142
ISAAC,2012,30.0247765061,-88.9821584151,29.1907549365,-89.8558952976,64.5373833629,961.1105706969,9.2536678914,0.9621608405
ISAAC,2012,30.3329201654,-89.8953804636,29.7912608767,-91.0790063167,60.1843654075,975.989792358,9.3486380933,0.9720354773
ISAAC,2012,30.1505580051,-89.3549275271,30.0109720885,-90.830550075,54.8373244141,974.1102900471,9.2924338825,0.9661915794
ISAAC,2012,30.5791267392,-90.5122066667,29.0225537853,-89.7791110174,70.2968430785,971.1006750991,9.3896497541,0.9731671998
ISAAC,2012,30.509327753,-90.3056062522,29.0565026219,-89.8747684547,70.1363856391,966.8801734532,9.3682172246,0.9709458779
ISAAC,2012,30.2341187626,-89.4910057166,28.8936898519,-89.361927377,69.5037212932,959.1513538468,9.2837113442,0.9621874734
ISAAC,2012,30.3159043081,-89.7330855596,29.0714090574,-89.8027772936,69.6917340416,961.7459297741,9.3088244756,0.9647902622
ISAAC,2012,30.4974558336,-90.2704661506,29.4458194256,-90.6410427896,65.1013014511,969.5086123797,9.3645718241,0.9705680593
ISAAC,2012,30.6102230115,-90.6042495903,29.8562766319,-91.2777750227,60.3157103674,978.1197697919,9.3991981989,0.9741568249
ISAAC,2012,30.6946711716,-90.8542105977,30.3418588593,-91.8320047204,55.4419347928,984.8503689551,9.4251289148,0.9768443503
ISAAC,2012,29.6266833872,-89.0290777441,28.7126475483,-88.8204391287,69.5462051343,960.7311480695,9.3390618323,0.9627756062
ISAAC,2012,29.6257823262,-89.0263700286,28.8111229866,-89.1157838586,69.5440899677,958.7149545541,9.3387777957,0.9627463245
ISAAC,2012,29.9981894168,-90.1454645754,29.2738870566,-90.5377950205,70.4182850159,971.77233322,9.4561697021,0.9748484035
ISAAC,2012,29.9087843432,-89.8767996309,29.286938391,-90.4685562627,70.2084139511,968.8761125255,9.4279870163,0.971943015
ISAAC,2012,30.0244523055,-90.2243853487,29.6015726956,-91.1204873793,65.4456539189,974.6368152838,9.4644484129,0.9757018662
ISAAC,2012,30.1028412591,-90.45994652,29.9817030649,-91.6612336125,60.5690971007,982.2288579837,9.4891585458,0.9782492648
ISAAC,2012,29.6161200415,-88.9973345715,29.8942056757,-90.4771474106,54.6239638593,970.3202307368,9.335732005,0.9624323301
ISAAC,2012,30.2824020935,-89.6459209083,28.9309560497,-89.4957602367,70.0749800511,968.0357958494,9.530197287,0.9700957984
ISAAC,2012,30.0720568395,-89.0232294209,28.8294098627,-89.1723470581,69.5882307031,959.323466121,9.4639993756,0.9633573948
ISAAC,2012,30.2085775539,-89.4273758661,29.0601522915,-89.8767596644,69.9041464057,964.677220398,9.5069639112,0.9677308316
ISAAC,2012,30.2345655384,-89.5043088915,29.1851012801,-90.1539772419,69.9642838906,965.5071176906,9.5151426091,0.9685633559
ISAAC,2012,30.1831423388,-89.3520792213,29.3350209839,-90.2999795592,64.8563389099,965.860554843,9.4989591757,0.9669160153
ISAAC,2012,30.4489114223,-90.1388435658,29.895294851,-91.397063046,60.3945350524,979.3980434336,9.5825995617,0.9754299195
ISAAC,2012,29.9523124816,-88.6687465365,29.8037886181,-90.2034931265,54.4587499666,967.3854312251,9.4263145397,0.9595213881
ISAAC,2012,30.4305144786,-90.1447405762,29.0724584606,-89.9334874178,70.4177194547,972.7704958954,9.7075856105,0.974840574
ISAAC,2012,30.0101219576,-88.8994059049,28.7700342734,-88.9886922182,69.4449103152,957.347692202,9.573476922,0.9613733128
ISAAC,2012,30.16597002,-89.3610768096,29.0191645482,-89.7499934479,69.8055504595,963.3165963408,9.6231937419,0.9663659006
ISAAC,2012,30.5253255424,-90.4256007225,29.4657687881,-91.0209707083,70.6371169577,974.7922140161,9.7378311235,0.9778778435
ISAAC,2012,30.4023134624,-90.0612003096,29.54803358,-90.9556815983,65.3272851258,972.874030797,9.6985892533,0.9739371554
ISAAC,2012,30.0595356543,-89.0457847929,29.5129986424,-90.2282921459,59.6222194797,966.8736592288,9.5892402996,0.9629562791
ISAAC,2012,30.0205866675,-88.930405662,29.8717242543,-90.4091056334,54.58288485,969.5905181535,9.576815251,0.9617085495
ISAAC,2012,29.9750980544,-88.854754947,28.6468364343,-88.6168573434,69.3868010519,958.5290945311,9.6150281458,0.9605688666
ISAAC,2012,30.3314926978,-89.9112104972,29.0877410131,-89.9713920303,70.2117886524,967.919657851,9.7293478561,0.9719897333
ISAAC,2012,30.0252906793,-89.003540228,28.8933848799,-89.3609841647,69.5029876836,959.1412300341,9.6311282933,0.9621773175
ISAAC,2012,30.17935353,-89.4602265355,29.1414392552,-90.0191034527,69.8596146529,964.0626822094,9.6805466019,0.9671143482
ISAAC,2012,30.3749059279,-90.0398997148,29.531158541,-90.9037363252,65.2899763662,972.3184172685,9.7432733962,0.9733809347
ISAAC,2012,29.9662044169,-88.8283916644,29.4310936238,-89.9778889238,59.4567547955,964.1903736,9.6121753586,0.960283865
ISAAC,2012,30.0635847879,-89.1170549071,29.924401525,-90.568537506,54.6791389992,971.3003418586,9.6434117871,0.9634044737
ISAAC,2012,30.2664287861,-90.3966734048,29.0887858969,-89.9839951274,70.4572668783,973.3168153041,9.8036254199,0.975388056
ISAAC,2012,30.1128477983,-89.9379734208,29.0413231177,-89.827816678,70.0997454566,966.3750623662,9.7538788678,0.9704386429
ISAAC,2012,30.0376371514,-89.7133419544,29.0686811143,-89.9031374669,69.9246624742,964.9603421445,9.7295173214,0.9680148496
ISAAC,2012,29.9931415239,-89.5804469657,29.125365231,-89.9694501314,69.8210810332,963.5309182588,9.7151047038,0.966580901
ISAAC,2012,30.3287344839,-90.5827616893,29.652969532,-91.2786987293,65.5592863802,976.3290648615,9.823806913,0.977395965
ISAAC,2012,29.7695781721,-88.9127308159,29.4032747493,-89.8928399742,59.400555049,963.2790010449,9.642690103,0.959376185
ISAAC,2012,29.8948331388,-89.2868295376,29.9246583797,-90.5693148968,54.679608335,971.3086789699,9.6832615488,0.9634127431
ISAAC,2012,30.0295390337,-89.3814538269,28.7845332694,-89.0428122591,69.7203227979,963.1364592228,9.7309650534,0.9651860359
ISAAC,2012,30.251622307,-90.0424738252,29.0977461659,-90.0023390029,70.2359390212,968.2525879351,9.8029303462,0.9723240634
ISAAC,2012,30.0589848337,-89.4690978102,29.0121545161,-89.7283129364,69.7886878395,963.0838921846,9.7405068599,0.9661324599
ISAAC,2012,30.1893387898,-89.8570899832,29.2380992591,-90.317690177,70.0913338403,967.2604069956,9.7827475946,0.9703221951
ISAAC,2012,30.3744546156,-90.4080781824,29.6188711674,-91.1737360766,65.4838988395,975.20637041,9.8427337179,0.9762720437
ISAAC,2012,29.9319316953,-89.0909303595,29.4851864462,-90.1432636132,59.5660332246,965.9625054581,9.6993357434,0.9620488169
ISAAC,2012,30.2742702054,-90.1098841867,30.2240641188,-91.4754897416,55.2266952337,981.0269316962,9.810269317,0.9730519945
ISAAC,2012,30.1014913734,-88.765644581,28.6917249568,-88.7557166485,69.4955275771,960.0310738155,9.6995900633,0.9620740422
ISAAC,2012,30.4921898886,-89.9177670825,29.164693495,-90.2094140174,70.3975360225,970.4803180248,9.8254846706,0.974561161
ISAAC,2012,30.4110151917,-89.6783927537,29.187352971,-90.2701638277,70.2101274215,968.8997584171,9.7993277844,0.9719667358
ISAAC,2012,30.4695816383,-89.8510980963,29.3440561952,-90.644995507,70.3453401939,970.7656946762,9.8181996242,0.9738385785
ISAAC,2012,30.1524714291,-88.9159785776,29.2375547498,-89.9999559476,64.640852338,962.651462511,9.7160173437,0.9637034162
ISAAC,2012,30.0278673757,-88.5485363476,29.4138410639,-89.9251437239,59.4219011392,963.6251634735,9.6758662355,0.9597209449
ISAAC,2012,30.4225315957,-89.7123532312,30.2017876329,-91.4080682179,55.1859906914,980.3038710082,9.8030387101,0.9723348117
ISAAC,2012,30.5072958577,-90.3007884006,29.1650959407,-90.220054571,70.6421008945,975.8701652144,10.031178327,0.9779468395
ISAAC,2012,30.3929666097,-89.9623768519,29.1563358148,-90.1835628477,70.3773623115,970.2022090085,9.9935854482,0.9742818825
ISAAC,2012,30.1296053939,-89.1828346229,29.003358153,-89.7011076895,69.767528203,962.7918892012,9.9069890048,0.9658395326
ISAAC,2012,30.2410270036,-89.5126396388,29.2106512903,-90.2329022734,70.0255339151,966.3523680277,9.9436258159,0.9694112818
ISAAC,2012,30.2968132725,-89.6777655186,29.464978836,-90.7000198864,65.1436606919,970.1394392266,9.961969035,0.9711995755
ISAAC,2012,30.3614956752,-89.8692237187,29.8291902598,-91.1949655081,60.2609904238,977.2323947063,9.9832374135,0.9732730451
ISAAC,2012,30.2170887209,-89.4417829555,30.0871442441,-91.0610910511,54.9765094161,976.5827218099,9.9357546108,0.9686439123
ISAAC,2012,30.0226010442,-88.8955109675,28.7112233679,-88.8160335326,69.5427555624,960.6834946982,9.9247446867,0.9627278514
ISAAC,2012,30.4285207749,-90.0974202163,29.2001026629,-90.3189382365,70.4830064276,971.6585886088,10.0589319173,0.9757443862
ISAAC,2012,30.2951779436,-89.7025983584,29.1723917326,-90.2238919564,70.1741381883,968.4031069984,10.0148520072,0.9714685122
ISAAC,2012,30.2294893319,-89.5080974659,29.2091690434,-90.2283235519,70.0219805835,966.303332052,9.9931369433,0.9693620906
ISAAC,2012,30.1049043329,-89.1392071378,29.2880273788,-90.1553223734,64.7524414837,964.3132824031,9.9519521603,0.9653670521
ISAAC,2012,30.0800752828,-89.0656894873,29.5624829881,-90.3795776201,59.7221878547,968.4948130432,9.9437442778,0.9645708646
ISAAC,2012,30.2384303935,-89.5345715292,30.1183572087,-91.1555595252,55.0335430723,977.5958469386,9.9960926417,0.9696488016
ISAAC,2012,30.5601259514,-90.6140930119,29.0713508886,-89.9300612263,70.4150367544,972.7334363072,10.0995281288,0.9748034356
ISAAC,2012,30.572229623,-90.6499817129,29.1834976651,-90.2675772607,70.4429253985,971.106042994,10.1035281572,0.9751895171
ISAAC,2012,30.2985208098,-89.8384053506,29.0219537711,-89.7586199106,69.8122599305,963.4091870409,10.01307271,0.9664587844
ISAAC,2012,30.3255424695,-89.9185275066,29.1476576731,-90.0383124011,69.8745218191,964.2684011031,10.0220028438,0.9673207182
ISAAC,2012,30.2057882113,-89.563443123,29.2314079465,-89.9810346651,64.6272624667,962.4490779651,9.9824263872,0.9635008105
ISAAC,2012,30.3886314896,-90.1055933041,29.7084382897,-90.8257978687,60.0170470498,973.2764463247,10.0428525397,0.9693331247
ISAAC,2012,30.4945019758,-90.4195107959,30.2134466581,-91.4433551677,55.2072945579,980.6823051469,10.0778406793,0.9727101694
ISAAC,2012,30.3105770655,-89.6387204684,28.9674496426,-89.6086504515,70.1633728367,969.2568790442,10.1135490275,0.9713194801
ISAAC,2012,30.0726318802,-88.9350353521,28.8394948587,-89.2035409939,69.6125737968,959.6590530562,10.0341552801,0.9636943929
ISAAC,2012,29.9962831802,-88.7092461908,28.8654709175,-89.2746523221,69.435840695,958.2146015908,10.0086804659,0.9612477559
ISAAC,2012,30.0450385906,-88.8534325781,29.0117436127,-89.6184682829,69.5487004413,959.7720660897,10.0249483922,0.9628101504
ISAAC,2012,30.3946738045,-89.8874232254,29.5503773099,-90.9628961411,65.3324668417,972.9511985037,10.1416090836,0.9740144074
ISAAC,2012,30.2872163526,-89.5696348682,29.7463732035,-90.9417739689,60.0936832393,974.5192298645,10.1057543981,0.9705708729
ISAAC,2012,30.4387978668,-90.0179131359,30.2978775063,-91.6988917218,55.3615701943,983.4228014514,10.1563316956,0.9754283878
ISAAC,2012,30.1162297069,-90.5001792098,29.187090494,-90.2880930851,70.6953748989,976.6061075314,10.2811273781,0.9786843479
ISAAC,2012,29.9802904882,-90.0916777548,29.1558827686,-90.1821615289,70.3762687517,970.1871335054,10.234720227,0.9742667436
ISAAC,2012,29.9855497188,-90.1074819015,29.2615525425,-90.4996470387,70.3886143634,971.3628782153,10.2365156317,0.9744376524
ISAAC,2012,29.7397069771,-89.3687170429,29.1213763827,-89.957128415,69.8115187256,963.3989584138,10.1525894375,0.9664485234
ISAAC,2012,29.6697879201,-89.1586081663,29.2519035832,-90.0441249755,64.6725759492,963.1239002899,10.1287203564,0.9641763702
ISAAC,2012,29.9161057732,-89.898800749,29.7957190296,-91.0926359559,60.193371777,976.1358456507,10.2128087448,0.9721809389
ISAAC,2012,29.556398227,-88.8178687162,29.8339230929,-90.2946974673,54.5138129605,968.3635502258,10.0900111989,0.9604915558
ISAAC,2012,29.9220350906,-88.6076413057,28.6150501032,-88.518528693,69.3098099386,957.465517294,10.1093308496,0.9595030261
ISAAC,2012,30.521407568,-90.3825533839,29.289239559,-90.5946478773,70.6981644527,974.6246956699,10.3118322723,0.9787229656
ISAAC,2012,30.0793446421,-89.0734795507,28.9645575475,-89.581105817,69.6741934132,961.5038691028,10.1624787821,0.9645474353
ISAAC,2012,30.3421281732,-89.8516561954,29.3180060443,-90.5645255204,70.2828912021,969.9038985889,10.2512617025,0.9729740545
ISAAC,2012,30.3010311627,-89.7299562791,29.478832435,-90.7426644682,65.174289397,970.5955713279,10.2373768422,0.9716562061
ISAAC,2012,30.0019205713,-88.844204895,29.4856730962,-90.1447514187,59.567016356,965.9784485731,10.1363206166,0.9620646954
ISAAC,2012,30.2844266317,-89.6807855483,30.1641708012,-91.29421794,55.1172556169,979.0828861398,10.2317669063,0.9711237524
ISAAC,2012,30.2321556861,-88.9754526016,28.7498946801,-88.9356603598,69.6364231005,961.9774448312,10.5250479486,0.9640245551
ISAAC,2012,30.1638643292,-88.7744661272,28.7842074876,-89.0325314357,69.4791215217,957.8193181212,10.5012729386,0.9618469219
ISAAC,2012,30.2796467102,-89.1152221705,28.9943310058,-89.6731886779,69.7458134161,962.4922251424,10.5415815135,0.9655389199
ISAAC,2012,30.1585589179,-88.7588519123,28.9776215993,-89.5130639813,69.4669010942,958.6432350995,10.4994259082,0.9616777462
ISAAC,2012,30.2903617991,-89.1467574634,29.3036076635,-90.2032820935,64.7868876914,964.826265928,10.5453118735,0.9658805962
ISAAC,2012,30.5594270198,-89.9386361517,29.8655802069,-91.3062182756,60.3345054685,978.4245636806,10.6389844643,0.9744603839
ISAAC,2012,30.3065065173,-89.1942725536,30.0173032632,-90.8497118698,54.8488930059,974.3157903052,10.5509325091,0.9663954091
ISAAC,2012,30.2522769434,-89.4663071113,28.9117329254,-89.4362949318,70.0284188504,967.3925861195,10.6243115456,0.9694512199
ISAAC,2012,29.9864239485,-88.6800890778,28.7568219083,-88.9478250059,69.4130183993,956.9080393616,10.5309465057,0.9609318113
ISAAC,2012,30.5173525556,-90.2502261589,29.3668968045,-90.8254540344,70.6420198046,974.8598733029,10.7174035761,0.9779457169
ISAAC,2012,30.2213853218,-89.374950044,29.1820255092,-90.1444760591,69.9569104672,965.4053644472,10.6134627023,0.9684612806
ISAAC,2012,30.2176127796,-89.3637933492,29.3782346468,-90.4330012088,64.9518793212,967.2833720456,10.6121378214,0.9683403873
ISAAC,2012,30.4006269353,-89.9050286649,29.8577585972,-91.282305745,60.3187042368,978.1683203729,10.6764106499,0.9742051788
ISAAC,2012,30.3977948219,-89.8966531389,30.2570642903,-91.5753673371,55.2869945504,982.0980668309,10.6754160386,0.9741144222
ISAAC,2012,29.7073125982,-89.3309339636,28.7618537383,-88.9726548167,69.6653896775,962.3775974019,11.2758409292,0.9644255592
ISAAC,2012,29.9244018798,-89.9837290696,29.0722832333,-89.9235795181,70.17447677,967.4052869007,11.3582403115,0.9714731995
ISAAC,2012,29.9608101889,-90.0932101358,29.2080260133,-90.334101072,70.2598563893,969.5860181726,11.3720596127,0.9726551678
ISAAC,2012,29.6284999533,-89.093941568,28.9833232374,-89.5306765757,69.4805694046,958.8318577837,11.2459264479,0.961866966
ISAAC,2012,30.0143039709,-90.2540678202,29.5618270267,-90.9981410174,65.3577808412,973.3281823743,11.3923639528,0.9743918032
ISAAC,2012,29.9388565703,-90.0271948326,29.7884100549,-91.0702906729,60.1786061715,975.8963967486,11.3637267987,0.9719424601
ISAAC,2012,30.0653309928,-90.4075078698,30.317134435,-91.7571743198,55.3967572732,984.0478519254,11.4117319983,0.9760483571
ISAAC,2012,29.9502955669,-88.5633409257,28.6231329988,-88.5435325291,69.3293878863,957.7359726584,11.4888699926,0.959774057
ISAAC,2012,29.9518195961,-88.567847496,28.7236365174,-88.845179159,69.3329157316,955.8037668719,11.489454607,0.9598228954
ISAAC,2012,29.9934082142,-88.6908254799,28.8627043331,-89.2660958756,69.429185681,958.1227623977,11.5054079128,0.961155626
ISAAC,2012,30.0507631211,-88.8604245466,29.0172712677,-89.6355434366,69.5619516692,959.9549330349,11.5274091338,0.9629935962
ISAAC,2012,30.447367594,-90.0331881699,29.6016073831,-91.1205941554,65.4457306089,974.637957375,11.6795457702,0.9757030095
ISAAC,2012,30.4175265444,-89.9449478703,29.8743564275,-91.3330492801,60.3522352071,978.7120809418,11.6680988067,0.9747467363
ISAAC,2012,30.3168268941,-89.647177939,30.1764712141,-91.3314460998,55.1397314543,979.4821387429,11.629470634,0.9715197594
ISAAC,2012,29.5269079165,-89.305006101,28.6736437765,-88.6997838622,69.4517323306,959.4260737664,13.9597981984,0.9614677547
ISAAC,2012,29.701929352,-89.8343636081,28.943412339,-89.5249685107,69.8634090942,963.116996798,14.0425452279,0.9671668772
ISAAC,2012,29.7797452705,-90.0697201546,29.1193073714,-90.0597135197,70.0464438487,966.6409251118,14.0793352136,0.9697007523
ISAAC,2012,29.8081702914,-90.1556924707,29.2472638612,-90.3460000095,70.1133037768,967.5635921195,14.0927740591,0.9706263399
ISAAC,2012,30.0291872628,-90.8241648362,29.6659309653,-91.3185970189,65.5879426103,976.7558222576,14.1972669619,0.9778231887
ISAAC,2012,29.8314623926,-90.2261401195,29.7713183152,-91.0180371386,60.1440774044,975.3364552409,14.1037861513,0.9713847873
ISAAC,2012,29.9256443272,-90.5109961656,30.2675367691,-91.6070631117,55.306130309,982.4379874881,14.148313699,0.9744515795
ISAAC,2012,29.9425880743,-90.5723043833,29.0773116716,-89.9485004651,70.4294746371,972.932885344,14.3374287654,0.975003309
ISAAC,2012,29.8170182339,-90.1924724937,29.0555621231,-89.8718593945,70.1341154695,966.8488775434,14.2773020777,0.9709144504
ISAAC,2012,29.7811523711,-90.0839830795,29.1206832661,-90.0639688642,70.049753561,966.6865991421,14.2601284035,0.9697465709
ISAAC,2012,29.5739906925,-89.4573468461,29.0174908676,-89.6362217898,69.5624781074,959.9621978816,14.1609330433,0.9630008841
ISAAC,2012,29.9439906748,-90.5765470612,29.5817649811,-91.0595146527,65.4018613528,973.9846429155,14.3381003735,0.9750489811
ISAAC,2012,30.0419168926,-90.8727607081,29.9813485118,-91.6601496589,60.5683808319,982.2172424902,14.3849904476,0.9782376963
ISAAC,2012,29.570745153,-89.4475295254,29.9085829673,-90.5206614059,54.6502346578,970.7868956488,14.1593789795,0.9628952014
CAMILLE,1969,,,,,,,,
CAMILLE,1969,,,,,,,,
CAMILLE,1969,,,,,,,,
CAMILLE,1969,,,,,,,,
CAMILLE,1969,,,,,,,,
CAMILLE,1969,,,,,,,,
CAMILLE,1969,,,,,,,,
CAMILLE,1969,,,,,,,,
CAMILLE,1969,,,,,,,,
CAMILLE,1969,,,,,,,,
CAMILLE,1969,,,,,,,,
CAMILLE,1969,,,,,,,,
CAMILLE,1969,,,,,,,,
CAMILLE,1969,,,,,,,,
CAMILLE,1969,,,,,,,,
CAMILLE,1969,,,,,,,,
CAMILLE,1969,,,,,,,,
CAMILLE,1969,,,,,,,,
CAMILLE,1969,,,,,,,,
CAMILLE,1969,,,,,,,,
CAMILLE,1969,,,,,,,,
CAMILLE,1969,,,,,,,,
CAMILLE,1969,,,,,,,,
CAMILLE,1969,,,,,,,,
CAMILLE,1969,,,,,,,,
GUSTAV,2008,,,,,,,,
GUSTAV,2008,,,,,,,,
GUSTAV,2008,,,,,,,,
GUSTAV,2008,,,,,,,,
GUSTAV,2008,,,,,,,,
GUSTAV,2008,,,,,,,,
GUSTAV,2008,,,,,,,,
GUSTAV,2008,,,,,,,,
GUSTAV,2008,,,,,,,,
GUSTAV,2008,,,,,,,,
GUSTAV,2008,,,,,,,,
GUSTAV,2008,,,,,,,,
GUSTAV,2008,,,,,,,,
GUSTAV,2008,,,,,,,,
GUSTAV,2008,,,,,,,,
GUSTAV,2008,,,,,,,,
GUSTAV,2008,,,,,,,,
GUSTAV,2008,,,,,,,,
GUSTAV,2008,,,,,,,,
GUSTAV,2008,,,,,,,,
GUSTAV,2008,,,,,,,,
GUSTAV,2008,,,,,,,,
GUSTAV,2008,,,,,,,,
GUSTAV,2008,,,,,,,,
GUSTAV,2008,,,,,,,,
GUSTAV,2008,,,,,,,,
GUSTAV,2008,,,,,,,,
GUSTAV,2008,,,,,,,,
GUSTAV,2008,,,,,,,,
GUSTAV,2008,,,,,,,,
GUSTAV,2008,,,,,,,,
GUSTAV,2008,,,,,,,,
GUSTAV,2008,,,,,,,,
GUSTAV,2008,,,,,,,,
GUSTAV,2008,,,,,,,,
GUSTAV,2008,,,,,,,,
GUSTAV,2008,,,,,,,,
GUSTAV,2008,,,,,,,,
GUSTAV,2008,,,,,,,,
GUSTAV,2008,,,,,,,,
GUSTAV,2008,,,,,,,,
GUSTAV,2008,,,,,,,,
GUSTAV,2008,,,,,,,,
GUSTAV,2008,,,,,,,,
GUSTAV,2008,,,,,,,,
GUSTAV,2008,,,,,,,,
GUSTAV,2008,,,,,,,,
GUSTAV,2008,,,,,,,,
GUSTAV,2008,,,,,,,,
GUSTAV,2008,,,,,,,,
GUSTAV,2008,,,,,,,,
GUSTAV,2008,,,,,,,,
GUSTAV,2008,,,,,,,,
GUSTAV,2008,,,,,,,,
GUSTAV,2008,,,,,,,,
GUSTAV,2008,,,,,,,,
GUSTAV,2008,,,,,,,,
GUSTAV,2008,,,,,,,,
GUSTAV,2008,,,,,,,,
GUSTAV,2008,,,,,,,,
GUSTAV,2008,,,,,,,,
GUSTAV,2008,,,,,,,,
GUSTAV,2008,,,,,,,,
GUSTAV,2008,,,,,,,,
GUSTAV,2008,,,,,,,,
GUSTAV,2008,,,,,,,,
GUSTAV,2008,,,,,,,,
GUSTAV,2008,,,,,,,,
GUSTAV,2008,,,,,,,,
GUSTAV,2008,,,,,,,,
GUSTAV,2008,,,,,,,,
GUSTAV,2008,,,,,,,,
GUSTAV,2008,,,,,,,,
GUSTAV,2008,,,,,,,,
GUSTAV,2008,,,,,,,,
GUSTAV,2008,,,,,,,,
GUSTAV,2008,,,,,,,,
GUSTAV,2008,,,,,,,,
GUSTAV,2008,,,,,,,,
GUSTAV,2008,,,,,,,,
GUSTAV,2008,,,,,,,,
GUSTAV,2008,,,,,,,,
GUSTAV,2008,,,,,,,,
GUSTAV,2008,,,,,,,,
GUSTAV,2008,,,,,,,,
GUSTAV,2008,,,,,,,,
GUSTAV,2008,,,,,,,,
GUSTAV,2008,,,,,,,,
GUSTAV,2008,,,,,,,,
GUSTAV,2008,,,,,,,,
GUSTAV,2008,,,,,,,,
GUSTAV,2008,,,,,,,,
GUSTAV,2008,,,,,,,,
GUSTAV,2008,,,,,,,,
GUSTAV,2008,,,,,,,,
GUSTAV,2008,,,,,,,,
GUSTAV,2008,,,,,,,,
GUSTAV,2008,,,,,,,,
GUSTAV,2008,,,,,,,,
GUSTAV,2008,,,,,,,,
GUSTAV,2008,,,,,,,,
GUSTAV,2008,,,,,,,,
GUSTAV,2008,,,,,,,,
GUSTAV,2008,,,,,,,,
GUSTAV,2008,,,,,,,,
GUSTAV,2008,,,,,,,,
GUSTAV,2008,,,,,,,,
GUSTAV,2008,,,,,,,,
GUSTAV,2008,,,,,,,,
GUSTAV,2008,,,,,,,,
GUSTAV,2008,,,,,,,,
GUSTAV,2008,,,,,,,,
GUSTAV,2008,,,,,,,,
GUSTAV,2008,,,,,,,,
GUSTAV,2008,,,,,,,,
GUSTAV,2008,,,,,,,,
GUSTAV,2008,,,,,,,,
GUSTAV,2008,,,,,,,,
GUSTAV,2008,,,,,,,,
GUSTAV,2008,,,,,,,,
GUSTAV,2008,,,,,,,,
GUSTAV,2008,,,,,,,,
GUSTAV,2008,,,,,,,,
GUSTAV,2008,,,,,,,,
GUSTAV,2008,,,,,,,,
GUSTAV,2008,,,,,,,,
GUSTAV,2008,,,,,,,,
GUSTAV,2008,,,,,,,,
GUSTAV,2008,,,,,,,,
GUSTAV,2008,,,,,,,,
GUSTAV,2008,,,,,,,,
GUSTAV,2008,,,,,,,,
GUSTAV,2008,,,,,,,,
GUSTAV,2008,,,,,,,,
GUSTAV,2008,,,,,,,,
GUSTAV,2008,,,,,,,,
GUSTAV,2008,,,,,,,,
GUSTAV,2008,,,,,,,,
GUSTAV,2008,,,,,,,,
GUSTAV,2008,,,,,,,,
GUSTAV,2008,,,,,,,,
GUSTAV,2008,,,,,,,,
GUSTAV,2008,,,,,,,,
GUSTAV,2008,,,,,,,,
GUSTAV,2008,,,,,,,,
GUSTAV,2008,,,,,,,,
GUSTAV,2008,,,,,,,,
GUSTAV,2008,,,,,,,,
GUSTAV,2008,,,,,,,,
GUSTAV,2008,,,,,,,,
GUSTAV,2008,,,,,,,,
GUSTAV,2008,,,,,,,,
GUSTAV,2008,,,,,,,,
GUSTAV,2008,,,,,,,,
GUSTAV,2008,,,,,,,,
GUSTAV,2008,,,,,,,,
GUSTAV,2008,,,,,,,,
GUSTAV,2008,,,,,,,,
GUSTAV,2008,,,,,,,,
GUSTAV,2008,,,,,,,,
GUSTAV,2008,,,,,,,,
GUSTAV,2008,,,,,,,,
GUSTAV,2008,,,,,,,,
GUSTAV,2008,,,,,,,,
GUSTAV,2008,,,,,,,,
GUSTAV,2008,,,,,,,,
GUSTAV,2008,,,,,,,,
GUSTAV,2008,,,,,,,,
GUSTAV,2008,,,,,,,,
GUSTAV,2008,,,,,,,,
GUSTAV,2008,,,,,,,,
GUSTAV,2008,,,,,,,,
GUSTAV,2008,,,,,,,,
GUSTAV,2008,,,,,,,,
GUSTAV,2008,,,,,,,,
GUSTAV,2008,,,,,,,,
GUSTAV,2008,,,,,,,,
GUSTAV,2008,,,,,,,,
GUSTAV,2008,,,,,,,,
GUSTAV,2008,,,,,,,,
GUSTAV,2008,,,,,,,,
GUSTAV,2008,,,,,,,,
GUSTAV,2008,,,,,,,,
GUSTAV,2008,,,,,,,,
GUSTAV,2008,,,,,,,,
GUSTAV,2008,,,,,,,,
GUSTAV,2008,,,,,,,,
GUSTAV,2008,,,,,,,,
GUSTAV,2008,,,,,,,,
GUSTAV,2008,,,,,,,,
GUSTAV,2008,,,,,,,,
GUSTAV,2008,,,,,,,,
GUSTAV,2008,,,,,,,,
GUSTAV,2008,,,,,,,,
GUSTAV,2008,,,,,,,,
GUSTAV,2008,,,,,,,,
GUSTAV,2008,,,,,,,,
GUSTAV,2008,,,,,,,,
GUSTAV,2008,,,,,,,,
GUSTAV,2008,,,,,,,,
GUSTAV,2008,,,,,,,,
GUSTAV,2008,,,,,,,,
GUSTAV,2008,,,,,,,,
GUSTAV,2008,,,,,,,,
GUSTAV,2008,,,,,,,,
GUSTAV,2008,,,,,,,,
GUSTAV,2008,,,,,,,,
GUSTAV,2008,,,,,,,,
GUSTAV,2008,,,,,,,,
GUSTAV,2008,,,,,,,,
GUSTAV,2008,,,,,,,,
GUSTAV,2008,,,,,,,,
GUSTAV,2008,,,,,,,,
GUSTAV,2008,,,,,,,,
GUSTAV,2008,,,,,,,,
GUSTAV,2008,,,,,,,,
GUSTAV,2008,,,,,,,,
GUSTAV,2008,,,,,,,,
GUSTAV,2008,,,,,,,,
GUSTAV,2008,,,,,,,,
GUSTAV,2008,,,,,,,,
GUSTAV,2008,,,,,,,,
GUSTAV,2008,,,,,,,,
GUSTAV,2008,,,,,,,,
GUSTAV,2008,,,,,,,,
GUSTAV,2008,,,,,,,,
GUSTAV,2008,,,,,,,,
GUSTAV,2008,,,,,,,,
GUSTAV,2008,,,,,,,,
GUSTAV,2008,,,,,,,,
GUSTAV,2008,,,,,,,,
GUSTAV,2008,,,,,,,,
GUSTAV,2008,,,,,,,,
GUSTAV,2008,,,,,,,,
GUSTAV,2008,,,,,,,,
GUSTAV,2008,,,,,,,,
GUSTAV,2008,,,,,,,,
GUSTAV,2008,,,,,,,,
GUSTAV,2008,,,,,,,,
GUSTAV,2008,,,,,,,,
GUSTAV,2008,,,,,,,,
GUSTAV,2008,,,,,,,,
GUSTAV,2008,,,,,,,,
GUSTAV,2008,,,,,,,,
GUSTAV,2008,,,,,,,,
GUSTAV,2008,,,,,,,,
GUSTAV,2008,,,,,,,,
GUSTAV,2008,,,,,,,,
GUSTAV,2008,,,,,,,,
GUSTAV,2008,,,,,,,,
GUSTAV,2008,,,,,,,,
GUSTAV,2008,,,,,,,,
GUSTAV,2008,,,,,,,,
GUSTAV,2008,,,,,,,,
GUSTAV,2008,,,,,,,,
KATRINA,2005,,,,,,,,
KATRINA,2005,,,,,,,,
KATRINA,2005,,,,,,,,
KATRINA,2005,,,,,,,,
KATRINA,2005,,,,,,,,
KATRINA,2005,,,,,,,,
KATRINA,2005,,,,,,,,
KATRINA,2005,,,,,,,,
KATRINA,2005,,,,,,,,
KATRINA,2005,,,,,,,,
KATRINA,2005,,,,,,,,
KATRINA,2005,,,,,,,,
KATRINA,2005,,,,,,,,
KATRINA,2005,,,,,,,,
KATRINA,2005,,,,,,,,
KATRINA,2005,,,,,,,,
KATRINA,2005,,,,,,,,
KATRINA,2005,,,,,,,,
KATRINA,2005,,,,,,,,
KATRINA,2005,,,,,,,,
KATRINA,2005,,,,,,,,
KATRINA,2005,,,,,,,,
KATRINA,2005,,,,,,,,
KATRINA,2005,,,,,,,,
KATRINA,2005,,,,,,,,
KATRINA,2005,,,,,,,,
KATRINA,2005,,,,,,,,
KATRINA,2005,,,,,,,,
KATRINA,2005,,,,,,,,
KATRINA,2005,,,,,,,,
KATRINA,2005,,,,,,,,
KATRINA,2005,,,,,,,,
KATRINA,2005,,,,,,,,
KATRINA,2005,,,,,,,,
KATRINA,2005,,,,,,,,
KATRINA,2005,,,,,,,,
KATRINA,2005,,,,,,,,
KATRINA,2005,,,,,,,,
KATRINA,2005,,,,,,,,
KATRINA,2005,,,,,,,,
KATRINA,2005,,,,,,,,
KATRINA,2005,,,,,,,,
KATRINA,2005,,,,,,,,
KATRINA,2005,,,,,,,,
KATRINA,2005,,,,,,,,
KATRINA,2005,,,,,,,,
KATRINA,2005,,,,,,,,
KATRINA,2005,,,,,,,,
KATRINA,2005,,,,,,,,
KATRINA,2005,,,,,,,,
KATRINA,2005,,,,,,,,
KATRINA,2005,,,,,,,,
KATRINA,2005,,,,,,,,
KATRINA,2005,,,,,,,,
KATRINA,2005,,,,,,,,
KATRINA,2005,,,,,,,,
KATRINA,2005,,,,,,,,
KATRINA,2005,,,,,,,,
KATRINA,2005,,,,,,,,
KATRINA,2005,,,,,,,,
KATRINA,2005,,,,,,,,
KATRINA,2005,,,,,,,,
KATRINA,2005,,,,,,,,
KATRINA,2005,,,,,,,,
KATRINA,2005,,,,,,,,
KATRINA,2005,,,,,,,,
KATRINA,2005,,,,,,,,
KATRINA,2005,,,,,,,,
KATRINA,2005,,,,,,,,
KATRINA,2005,,,,,,,,
KATRINA,2005,,,,,,,,
KATRINA,2005,,,,,,,,
KATRINA,2005,,,,,,,,
KATRINA,2005,,,,,,,,
KATRINA,2005,,,,,,,,
KATRINA,2005,,,,,,,,
KATRINA,2005,,,,,,,,
KATRINA,2005,,,,,,,,
KATRINA,2005,,,,,,,,
KATRINA,2005,,,,,,,,
KATRINA,2005,,,,,,,,
KATRINA,2005,,,,,,,,
KATRINA,2005,,,,,,,,
KATRINA,2005,,,,,,,,
KATRINA,2005,,,,,,,,
KATRINA,2005,,,,,,,,
KATRINA,2005,,,,,,,,
KATRINA,2005,,,,,,,,
KATRINA,2005,,,,,,,,
KATRINA,2005,,,,,,,,
KATRINA,2005,,,,,,,,
KATRINA,2005,,,,,,,,
KATRINA,2005,,,,,,,,
KATRINA,2005,,,,,,,,
KATRINA,2005,,,,,,,,
KATRINA,2005,,,,,,,,
KATRINA,2005,,,,,,,,
KATRINA,2005,,,,,,,,
KATRINA,2005,,,,,,,,
KATRINA,2005,,,,,,,,
KATRINA,2005,,,,,,,,
KATRINA,2005,,,,,,,,
KATRINA,2005,,,,,,,,
KATRINA,2005,,,,,,,,
KATRINA,2005,,,,,,,,
KATRINA,2005,,,,,,,,
KATRINA,2005,,,,,,,,
KATRINA,2005,,,,,,,,
KATRINA,2005,,,,,,,,
KATRINA,2005,,,,,,,,
KATRINA,2005,,,,,,,,
KATRINA,2005,,,,,,,,
KATRINA,2005,,,,,,,,
KATRINA,2005,,,,,,,,
KATRINA,2005,,,,,,,,
KATRINA,2005,,,,,,,,
KATRINA,2005,,,,,,,,
KATRINA,2005,,,,,,,,
KATRINA,2005,,,,,,,,
KATRINA,2005,,,,,,,,
KATRINA,2005,,,,,,,,
KATRINA,2005,,,,,,,,
KATRINA,2005,,,,,,,,
KATRINA,2005,,,,,,,,
KATRINA,2005,,,,,,,,
KATRINA,2005,,,,,,,,
KATRINA,2005,,,,,,,,
KATRINA,2005,,,,,,,,
KATRINA,2005,,,,,,,,
KATRINA,2005,,,,,,,,
KATRINA,2005,,,,,,,,
KATRINA,2005,,,,,,,,
KATRINA,2005,,,,,,,,
KATRINA,2005,,,,,,,,
KATRINA,2005,,,,,,,,
KATRINA,2005,,,,,,,,
KATRINA,2005,,,,,,,,
KATRINA,2005,,,,,,,,
KATRINA,2005,,,,,,,,
KATRINA,2005,,,,,,,,
KATRINA,2005,,,,,,,,
KATRINA,2005,,,,,,,,
KATRINA,2005,,,,,,,,
KATRINA,2005,,,,,,,,
KATRINA,2005,,,,,,,,
KATRINA,2005,,,,,,,,
KATRINA,2005,,,,,,,,
KATRINA,2005,,,,,,,,
KATRINA,2005,,,,,,,,
KATRINA,2005,,,,,,,,
KATRINA,2005,,,,,,,,
KATRINA,2005,,,,,,,,
KATRINA,2005,,,,,,,,
KATRINA,2005,,,,,,,,
KATRINA,2005,,,,,,,,
KATRINA,2005,,,,,,,,
KATRINA,2005,,,,,,,,
KATRINA,2005,,,,,,,,
KATRINA,2005,,,,,,,,
KATRINA,2005,,,,,,,,
KATRINA,2005,,,,,,,,
KATRINA,2005,,,,,,,,
KATRINA,2005,,,,,,,,
KATRINA,2005,,,,,,,,
KATRINA,2005,,,,,,,,
KATRINA,2005,,,,,,,,
KATRINA,2005,,,,,,,,
KATRINA,2005,,,,,,,,
KATRINA,2005,,,,,,,,
KATRINA,2005,,,,,,,,
KATRINA,2005,,,,,,,,
KATRINA,2005,,,,,,,,
KATRINA,2005,,,,,,,,
KATRINA,2005,,,,,,,,
KATRINA,2005,,,,,,,,
KATRINA,2005,,,,,,,,
KATRINA,2005,,,,,,,,
KATRINA,2005,,,,,,,,
KATRINA,2005,,,,,,,,
KATRINA,2005,,,,,,,,
KATRINA,2005,,,,,,,,
KATRINA,2005,,,,,,,,
KATRINA,2005,,,,,,,,
KATRINA,2005,,,,,,,,
KATRINA,2005,,,,,,,,
KATRINA,2005,,,,,,,,
KATRINA,2005,,,,,,,,
KATRINA,2005,,,,,,,,
KATRINA,2005,,,,,,,,
KATRINA,2005,,,,,,,,
KATRINA,2005,,,,,,,,
KATRINA,2005,,,,,,,,
KATRINA,2005,,,,,,,,
KATRINA,2005,,,,,,,,
KATRINA,2005,,,,,,,,
KATRINA,2005,,,,,,,,
KATRINA,2005,,,,,,,,
KATRINA,2005,,,,,,,,
KATRINA,2005,,,,,,,,
KATRINA,2005,,,,,,,,
KATRINA,2005,,,,,,,,
KATRINA,2005,,,,,,,,
KATRINA,2005,,,,,,,,
KATRINA,2005,,,,,,,,
KATRINA,2005,,,,,,,,
KATRINA,2005,,,,,,,,
KATRINA,2005,,,,,,,,
KATRINA,2005,,,,,,,,
KATRINA,2005,,,,,,,,
KATRINA,2005,,,,,,,,
KATRINA,2005,,,,,,,,
KATRINA,2005,,,,,,,,
KATRINA,2005,,,,,,,,
KATRINA,2005,,,,,,,,
KATRINA,2005,,,,,,,,
KATRINA,2005,,,,,,,,
KATRINA,2005,,,,,,,,
KATRINA,2005,,,,,,,,
KATRINA,2005,,,,,,,,
KATRINA,2005,,,,,,,,
KATRINA,2005,,,,,,,,
KATRINA,2005,,,,,,,,
KATRINA,2005,,,,,,,,
KATRINA,2005,,,,,,,,
KATRINA,2005,,,,,,,,
KATRINA,2005,,,,,,,,
KATRINA,2005,,,,,,,,
KATRINA,2005,,,,,,,,
KATRINA,2005,,,,,,,,
KATRINA,2005,,,,,,,,
KATRINA,2005,,,,,,,,
KATRINA,2005,,,,,,,,
KATRINA,2005,,,,,,,,
KATRINA,2005,,,,,,,,
KATRINA,2005,,,,,,,,
KATRINA,2005,,,,,,,,
KATRINA,2005,,,,,,,,
KATRINA,2005,,,,,,,,
KATRINA,2005,,,,,,,,
KATRINA,2005,,,,,,,,
KATRINA,2005,,,,,,,,
KATRINA,2005,,,,,,,,
KATRINA,2005,,,,,,,,
KATRINA,2005,,,,,,,,
KATRINA,2005,,,,,,,,
KATRINA,2005,,,,,,,,
KATRINA,2005,,,,,,,,
KATRINA,2005,,,,,,,,
KATRINA,2005,,,,,,,,
KATRINA,2005,,,,,,,,
KATRINA,2005,,,,,,,,
KATRINA,2005,,,,,,,,
KATRINA,2005,,,,,,,,
KATRINA,2005,,,,,,,,
KATRINA,2005,,,,,,,,
KATRINA,2005,,,,,,,,
KATRINA,2005,,,,,,,,
KATRINA,2005,,,,,,,,
KATRINA,2005,,,,,,,,
KATRINA,2005,,,,,,,,
KATRINA,2005,,,,,,,,
KATRINA,2005,,,,,,,,
KATRINA,2005,,,,,,,,
KATRINA,2005,,,,,,,,
KATRINA,2005,,,,,,,,
KATRINA,2005,,,,,,,,
KATRINA,2005,,,,,,,,
KATRINA,2005,,,,,,,,
KATRINA,2005,,,,,,,,
KATRINA,2005,,,,,,,,
KATRINA,2005,,,,,,,,
KATRINA,2005,,,,,,,,
KATRINA,2005,,,,,,,,
KATRINA,2005,,,,,,,,
KATRINA,2005,,,,,,,,
KATRINA,2005,,,,,,,,
KATRINA,2005,,,,,,,,
KATRINA,2005,,,,,,,,
KATRINA,2005,,,,,,,,
KATRINA,2005,,,,,,,,
KATRINA,2005,,,,,,,,
KATRINA,2005,,,,,,,,
KATRINA,2005,,,,,,,,
KATRINA,2005,,,,,,,,
KATRINA,2005,,,,,,,,
KATRINA,2005,,,,,,,,
KATRINA,2005,,,,,,,,
KATRINA,2005,,,,,,,,
KATRINA,2005,,,,,,,,
KATRINA,2005,,,,,,,,
KATRINA,2005,,,,,,,,
KATRINA,2005,,,,,,,,
KATRINA,2005,,,,,,,,
KATRINA,2005,,,,,,,,
KATRINA,2005,,,,,,,,
KATRINA,2005,,,,,,,,
KATRINA,2005,,,,,,,,
KATRINA,2005,,,,,,,,
KATRINA,2005,,,,,,,,
KATRINA,2005,,,,,,,,
KATRINA,2005,,,,,,,,
KATRINA,2005,,,,,,,,
KATRINA,2005,,,,,,,,
KATRINA,2005,,,,,,,,
KATRINA,2005,,,,,,,,
KATRINA,2005,,,,,,,,
KATRINA,2005,,,,,,,,
KATRINA,2005,,,,,,,,
KATRINA,2005,,,,,,,,
KATRINA,2005,,,,,,,,
KATRINA,2005,,,,,,,,
KATRINA,2005,,,,,,,,
KATRINA,2005,,,,,,,,
KATRINA,2005,,,,,,,,
KATRINA,2005,,,,,,,,
KATRINA,2005,,,,,,,,
KATRINA,2005,,,,,,,,
KATRINA,2005,,,,,,,,
KATRINA,2005,,,,,,,,
KATRINA,2005,,,,,,,,
KATRINA,2005,,,,,,,,
KATRINA,2005,,,,,,,,
KATRINA,2005,,,,,,,,
KATRINA,2005,,,,,,,,
KATRINA,2005,,,,,,,,
KATRINA,2005,,,,,,,,
KATRINA,2005,,,,,,,,
KATRINA,2005,,,,,,,,
KATRINA,2005,,,,,,,,
KATRINA,2005,,,,,,,,
KATRINA,2005,,,,,,,,
KATRINA,2005,,,,,,,,
KATRINA,2005,,,,,,,,
KATRINA,2005,,,,,,,,
KATRINA,2005,,,,,,,,
KATRINA,2005,,,,,,,,
KATRINA,2005,,,,,,,,
KATRINA,2005,,,,,,,,
KATRINA,2005,,,,,,,,
KATRINA,2005,,,,,,,,
KATRINA,2005,,,,,,,,
KATRINA,2005,,,,,,,,
KATRINA,2005,,,,,,,,
KATRINA,2005,,,,,,,,
KATRINA,2005,,,,,,,,
KATRINA,2005,,,,,,,,
KATRINA,2005,,,,,,,,
KATRINA,2005,,,,,,,,
KATRINA,2005,,,,,,,,
KATRINA,2005,,,,,,,,
KATRINA,2005,,,,,,,,
KATRINA,2005,,,,,,,,
KATRINA,2005,,,,,,,,
KATRINA,2005,,,,,,,,
KATRINA,2005,,,,,,,,
KATRINA,2005,,,,,,,,
KATRINA,2005,,,,,,,,
KATRINA,2005,,,,,,,,
KATRINA,2005,,,,,,,,
KATRINA,2005,,,,,,,,
KATRINA,2005,,,,,,,,
KATRINA,2005,,,,,,,,
KATRINA,2005,,,,,,,,
KATRINA,2005,,,,,,,,
KATRINA,2005,,,,,,,,
KATRINA,2005,,,,,,,,
KATRINA,2005,,,,,,,,
KATRINA,2005,,,,,,,,
KATRINA,2005,,,,,,,,
KATRINA,2005,,,,,,,,
KATRINA,2005,,,,,,,,
KATRINA,2005,,,,,,,,
KATRINA,2005,,,,,,,,
KATRINA,2005,,,,,,,,
KATRINA,2005,,,,,,,,
KATRINA,2005,,,,,,,,
KATRINA,2005,,,,,,,,
KATRINA,2005,,,,,,,,
KATRINA,2005,,,,,,,,
KATRINA,2005,,,,,,,,
KATRINA,2005,,,,,,,,
KATRINA,2005,,,,,,,,
KATRINA,2005,,,,,,,,
KATRINA,2005,,,,,,,,
KATRINA,2005,,,,,,,,
KATRINA,2005,,,,,,,,
KATRINA,2005,,,,,,,,
KATRINA,2005,,,,,,,,
KATRINA,2005,,,,,,,,
KATRINA,2005,,,,,,,,
KATRINA,2005,,,,,,,,
KATRINA,2005,,,,,,,,
KATRINA,2005,,,,,,,,
KATRINA,2005,,,,,,,,
KATRINA,2005,,,,,,,,
KATRINA,2005,,,,,,,,
KATRINA,2005,,,,,,,,
KATRINA,2005,,,,,,,,
KATRINA,2005,,,,,,,,
KATRINA,2005,,,,,,,,
KATRINA,2005,,,,,,,,
KATRINA,2005,,,,,,,,
KATRINA,2005,,,,,,,,
KATRINA,2005,,,,,,,,
KATRINA,2005,,,,,,,,
KATRINA,2005,,,,,,,,
KATRINA,2005,,,,,,,,
KATRINA,2005,,,,,,,,
KATRINA,2005,,,,,,,,
KATRINA,2005,,,,,,,,
KATRINA,2005,,,,,,,,
KATRINA,2005,,,,,,,,
KATRINA,2005,,,,,,,,
KATRINA,2005,,,,,,,,
KATRINA,2005,,,,,,,,
KATRINA,2005,,,,,,,,
KATRINA,2005,,,,,,,,
KATRINA,2005,,,,,,,,
KATRINA,2005,,,,,,,,
KATRINA,2005,,,,,,,,
KATRINA,2005,,,,,,,,
KATRINA,2005,,,,,,,,
KATRINA,2005,,,,,,,,
KATRINA,2005,,,,,,,,
KATRINA,2005,,,,,,,,
KATRINA,2005,,,,,,,,
KATRINA,2005,,,,,,,,
KATRINA,2005,,,,,,,,
KATRINA,2005,,,,,,,,
KATRINA,2005,,,,,,,,
KATRINA,2005,,,,,,,,
KATRINA,2005,,,,,,,,
KATRINA,2005,,,,,,,,
KATRINA,2005,,,,,,,,
KATRINA,2005,,,,,,,,
KATRINA,2005,,,,,,,,
KATRINA,2005,,,,,,,,
KATRINA,2005,,,,,,,,
KATRINA,2005,,,,,,,,
KATRINA,2005,,,,,,,,
KATRINA,2005,,,,,,,,
KATRINA,2005,,,,,,,,
KATRINA,2005,,,,,,,,
KATRINA,2005,,,,,,,,
KATRINA,2005,,,,,,,,
KATRINA,2005,,,,,,,,
KATRINA,2005,,,,,,,,
KATRINA,2005,,,,,,,,
KATRINA,2005,,,,,,,,
KATRINA,2005,,,,,,,,
KATRINA,2005,,,,,,,,
KATRINA,2005,,,,,,,,
KATRINA,2005,,,,,,,,
KATRINA,2005,,,,,,,,
KATRINA,2005,,,,,,,,
KATRINA,2005,,,,,,,,
KATRINA,2005,,,,,,,,
KATRINA,2005,,,,,,,,
KATRINA,2005,,,,,,,,
KATRINA,2005,,,,,,,,
KATRINA,2005,,,,,,,,
KATRINA,2005,,,,,,,,
KATRINA,2005,,,,,,,,
KATRINA,2005,,,,,,,,
KATRINA,2005,,,,,,,,
KATRINA,2005,,,,,,,,
KATRINA,2005,,,,,,,,
KATRINA,2005,,,,,,,,
KATRINA,2005,,,,,,,,
KATRINA,2005,,,,,,,,
KATRINA,2005,,,,,,,,
KATRINA,2005,,,,,,,,
KATRINA,2005,,,,,,,,
KATRINA,2005,,,,,,,,
KATRINA,2005,,,,,,,,
KATRINA,2005,,,,,,,,
KATRINA,2005,,,,,,,,
KATRINA,2005,,,,,,,,
KATRINA,2005,,,,,,,,
KATRINA,2005,,,,,,,,
KATRINA,2005,,,,,,,,
KATRINA,2005,,,,,,,,
KATRINA,2005,,,,,,,,
KATRINA,2005,,,,,,,,
LEE,2011,,,,,,,,
LEE,2011,,,,,,,,
LEE,2011,,,,,,,,
LEE,2011,,,,,,,,
LEE,2011,,,,,,,,
LEE,2011,,,,,,,,
LEE,2011,,,,,,,,
LEE,2011,,,,,,,,
LEE,2011,,,,,,,,
LEE,2011,,,,,,,,
LEE,2011,,,,,,,,
LEE,2011,,,,,,,,
LEE,2011,,,,,,,,
LEE,2011,,,,,,,,
LEE,2011,,,,,,,,
LEE,2011,,,,,,,,
LEE,2011,,,,,,,,
UNNAMED,1901,,,,,,,,
UNNAMED,1901,,,,,,,,
UNNAMED,1901,,,,,,,,
UNNAMED,1920,,,,,,,,
UNNAMED,1920,,,,,,,,
UNNAMED,1923,,,,,,,,
UNNAMED,1923,,,,,,,,
UNNAMED,1923,,,,,,,,
UNNAMED,1947,,,,,,,,
UNNAMED,1947,,,,,,,,
UNNAMED,1947,,,,,,,,
UNNAMED,1947,,,,,,,,
UNNAMED,1947,,,,,,,,
UNNAMED,1947,,,,,,,,
UNNAMED,1947,,,,,,,,
UNNAMED,1947,,,,,,,,
UNNAMED,1947,,,,,,,,
UNNAMED,1947,,,,,,,,
UNNAMED,1947,,,,,,,,
UNNAMED,1947,,,,,,,,
UNNAMED,1947,,,,,,,,
UNNAMED,1947,,,,,,,,
UNNAMED,1947,,,,,,,,
UNNAMED,1947,,,,,,,,
UNNAMED,1947,,,,,,,,
UNNAMED,1947,,,,,,,,
UNNAMED,1947,,,,,,,,
UNNAMED,1947,,,,,,,,
UNNAMED,1947,,,,,,,,
UNNAMED,1947,,,,,,,,
UNNAMED,1947,,,,,,,,
UNNAMED,1947,,,,,,,,
UNNAMED,1947,,,,,,,,
UNNAMED,1947,,,,,,,,
UNNAMED,1947,,,,,,,,
UNNAMED,1947,,,,,,,,
UNNAMED,1947,,,,,,,,
UNNAMED,1947,,,,,,,,
UNNAMED,1947,,,,,,,,
UNNAMED,1947,,,,,,,,
UNNAMED,1947,,,,,,,,
UNNAMED,1947,,,,,,,,
UNNAMED,1947,,,,,,,,
UNNAMED,1947,,,,,,,,
UNNAMED,1947,,,,,,,,
UNNAMED,1947,,,,,,,,
UNNAMED,1947,,,,,,,,
UNNAMED,1947,,,,,,,,
UNNAMED,1947,,,,,,,,
UNNAMED,1947,,,,,,,,
UNNAMED,1947,,,,,,,,
UNNAMED,1947,,,,,,,,
UNNAMED,1947,,,,,,,,
UNNAMED,1947,,,,,,,,
UNNAMED,1947,,,,,,,,
UNNAMED,1947,,,,,,,,
UNNAMED,1947,,,,,,,,
UNNAMED,1947,,,,,,,,
UNNAMED,1947,,,,,,,,
UNNAMED,1947,,,,,,,,
UNNAMED,1947,,,,,,,,
UNNAMED,1947,,,,,,,,
UNNAMED,1947,,,,,,,,
UNNAMED,1947,,,,,,,,
UNNAMED,1947,,,,,,,,
UNNAMED,1947,,,,,,,,
UNNAMED,1947,,,,,,,,
UNNAMED,1947,,,,,,,,
UNNAMED,1947,,,,,,,,
UNNAMED,1947,,,,,,,,
UNNAMED,1947,,,,,,,,
UNNAMED,1947,,,,,,,,
UNNAMED,1947,,,,,,,,
UNNAMED,1947,,,,,,,,
UNNAMED,1947,,,,,,,,
UNNAMED,1947,,,,,,,,
UNNAMED,1947,,,,,,,,
UNNAMED,1947,,,,,,,,
UNNAMED,1947,,,,,,,,
UNNAMED,1947,,,,,,,,
UNNAMED,1947,,,,,,,,
UNNAMED,1947,,,,,,,,
UNNAMED,1947,,,,,,,,
UNNAMED,1947,,,,,,,,
UNNAMED,1947,,,,,,,,
UNNAMED,1947,,,,,,,,
UNNAMED,1947,,,,,,,,
UNNAMED,1947,,,,,,,,
UNNAMED,1947,,,,,,,,
UNNAMED,1947,,,,,,,,
UNNAMED,1947,,,,,,,,
UNNAMED,1947,,,,,,,,
UNNAMED,1948,,,,,,,,
UNNAMED,1948,,,,,,,,
UNNAMED,1948,,,,,,,,
UNNAMED,1948,,,,,,,,
UNNAMED,1948,,,,,,,,
UNNAMED,1948,,,,,,,,
FLOSSY,1956,,,,,,,,
FLOSSY,1956,,,,,,,,
FLOSSY,1956,,,,,,,,
FLOSSY,1956,,,,,,,,
FLOSSY,1956,,,,,,,,
FLOSSY,1956,,,,,,,,
FLOSSY,1956,,,,,,,,
FLOSSY,1956,,,,,,,,
FLOSSY,1956,,,,,,,,
FLOSSY,1956,,,,,,,,
FLOSSY,1956,,,,,,,,
FLOSSY,1956,,,,,,,,
BETSY,1965,,,,,,,,
BETSY,1965,,,,,,,,
BETSY,1965,,,,,,,,
BETSY,1965,,,,,,,,
BETSY,1965,,,,,,,,
BETSY,1965,,,,,,,,
BETSY,1965,,,,,,,,
BETSY,1965,,,,,,,,
BETSY,1965,,,,,,,,
BETSY,1965,,,,,,,,
BETSY,1965,,,,,,,,
BETSY,1965,,,,,,,,
BETSY,1965,,,,,,,,
BETSY,1965,,,,,,,,
BETSY,1965,,,,,,,,
BETSY,1965,,,,,,,,
BETSY,1965,,,,,,,,
BETSY,1965,,,,,,,,
BETSY,1965,,,,,,,,
BETSY,1965,,,,,,,,
BETSY,1965,,,,,,,,
BETSY,1965,,,,,,,,
BETSY,1965,,,,,,,,
BETSY,1965,,,,,,,,
BETSY,1965,,,,,,,,
BETSY,1965,,,,,,,,
BETSY,1965,,,,,,,,
BETSY,1965,,,,,,,,
BETSY,1965,,,,,,,,
BETSY,1965,,,,,,,,
BETSY,1965,,,,,,,,
BETSY,1965,,,,,,,,
BETSY,1965,,,,,,,,
BETSY,1965,,,,,,,,
BETSY,1965,,,,,,,,
BETSY,1965,,,,,,,,
BETSY,1965,,,,,,,,
BETSY,1965,,,,,,,,
BETSY,1965,,,,,,,,
BETSY,1965,,,,,,,,
BETSY,1965,,,,,,,,
BETSY,1965,,,,,,,,
BETSY,1965,,,,,,,,
BETSY,1965,,,,,,,,
BETSY,1965,,,,,,,,
BETSY,1965,,,,,,,,
BETSY,1965,,,,,,,,
BETSY,1965,,,,,,,,
BETSY,1965,,,,,,,,
BETSY,1965,,,,,,,,
BETSY,1965,,,,,,,,
BETSY,1965,,,,,,,,
BETSY,1965,,,,,,,,
BETSY,1965,,,,,,,,
BETSY,1965,,,,,,,,
BETSY,1965,,,,,,,,
BETSY,1965,,,,,,,,
BETSY,1965,,,,,,,,
BETSY,1965,,,,,,,,
BETSY,1965,,,,,,,,
BETSY,1965,,,,,,,,
BETSY,1965,,,,,,,,
BETSY,1965,,,,,,,,
BETSY,1965,,,,,,,,
BETSY,1965,,,,,,,,
BETSY,1965,,,,,,,,
BETSY,1965,,,,,,,,
BOB,1979,,,,,,,,
BOB,1979,,,,,,,,
BOB,1979,,,,,,,,
BOB,1979,,,,,,,,
BOB,1979,,,,,,,,
BOB,1979,,,,,,,,
BOB,1979,,,,,,,,
BOB,1979,,,,,,,,
JUAN,1985,,,,,,,,
JUAN,1985,,,,,,,,
JUAN,1985,,,,,,,,
JUAN,1985,,,,,,,,
JUAN,1985,,,,,,,,
JUAN,1985,,,,,,,,
JUAN,1985,,,,,,,,
JUAN,1985,,,,,,,,
JUAN,1985,,,,,,,,
JUAN,1985,,,,,,,,
JUAN,1985,,,,,,,,
JUAN,1985,,,,,,,,
JUAN,1985,,,,,,,,
JUAN,1985,,,,,,,,
JUAN,1985,,,,,,,,
BERYL,1988,,,,,,,,
BERYL,1988,,,,,,,,
BERYL,1988,,,,,,,,
BERYL,1988,,,,,,,,
BERYL,1988,,,,,,,,
BERYL,1988,,,,,,,,
BERYL,1988,,,,,,,,
BERYL,1988,,,,,,,,
BERYL,1988,,,,,,,,
BERYL,1988,,,,,,,,
BERYL,1988,,,,,,,,
BERYL,1988,,,,,,,,
BERYL,1988,,,,,,,,
BERYL,1988,,,,,,,,
BERYL,1988,,,,,,,,
BERYL,1988,,,,,,,,
BERYL,1988,,,,,,,,
BERYL,1988,,,,,,,,
BERYL,1988,,,,,,,,
BERYL,1988,,,,,,,,
BERYL,1988,,,,,,,,
BERYL,1988,,,,,,,,
BERYL,1988,,,,,,,,
BERYL,1988,,,,,,,,
BERYL,1988,,,,,,,,
BERYL,1988,,,,,,,,
BERYL,1988,,,,,,,,
BERYL,1988,,,,,,,,
BERYL,1988,,,,,,,,
BERYL,1988,,,,,,,,
BERYL,1988,,,,,,,,
BERYL,1988,,,,,,,,
FLORENCE,1988,,,,,,,,
FLORENCE,1988,,,,,,,,
FLORENCE,1988,,,,,,,,
FLORENCE,1988,,,,,,,,
FLORENCE,1988,,,,,,,,
FLORENCE,1988,,,,,,,,
FLORENCE,1988,,,,,,,,
FLORENCE,1988,,,,,,,,
FLORENCE,1988,,,,,,,,
FLORENCE,1988,,,,,,,,
FLORENCE,1988,,,,,,,,
FLORENCE,1988,,,,,,,,
FLORENCE,1988,,,,,,,,
FLORENCE,1988,,,,,,,,
FLORENCE,1988,,,,,,,,
FLORENCE,1988,,,,,,,,
FLORENCE,1988,,,,,,,,
FLORENCE,1988,,,,,,,,
FLORENCE,1988,,,,,,,,
FLORENCE,1988,,,,,,,,
FLORENCE,1988,,,,,,,,
FLORENCE,1988,,,,,,,,
FLORENCE,1988,,,,,,,,
FLORENCE,1988,,,,,,,,
FLORENCE,1988,,,,,,,,
FLORENCE,1988,,,,,,,,
FLORENCE,1988,,,,,,,,
FLORENCE,1988,,,,,,,,
FLORENCE,1988,,,,,,,,
FLORENCE,1988,,,,,,,,
DANNY,1997,,,,,,,,
DANNY,1997,,,,,,,,
DANNY,1997,,,,,,,,
DANNY,1997,,,,,,,,
DANNY,1997,,,,,,,,
DANNY,1997,,,,,,,,
DANNY,1997,,,,,,,,
DANNY,1997,,,,,,,,
DANNY,1997,,,,,,,,
DANNY,1997,,,,,,,,
GEORGES,1998,,,,,,,,
GEORGES,1998,,,,,,,,
GEORGES,1998,,,,,,,,
GEORGES,1998,,,,,,,,
GEORGES,1998,,,,,,,,
GEORGES,1998,,,,,,,,
GEORGES,1998,,,,,,,,
GEORGES,1998,,,,,,,,
GEORGES,1998,,,,,,,,
GEORGES,1998,,,,,,,,
GEORGES,1998,,,,,,,,
GEORGES,1998,,,,,,,,
GEORGES,1998,,,,,,,,
GEORGES,1998,,,,,,,,
GEORGES,1998,,,,,,,,
GEORGES,1998,,,,,,,,
GEORGES,1998,,,,,,,,
GEORGES,1998,,,,,,,,
GEORGES,1998,,,,,,,,
GEORGES,1998,,,,,,,,
GEORGES,1998,,,,,,,,
GEORGES,1998,,,,,,,,
GEORGES,1998,,,,,,,,
GEORGES,1998,,,,,,,,
GEORGES,1998,,,,,,,,
GEORGES,1998,,,,,,,,
GEORGES,1998,,,,,,,,
GEORGES,1998,,,,,,,,
GEORGES,1998,,,,,,,,
GEORGES,1998,,,,,,,,
GEORGES,1998,,,,,,,,
GEORGES,1998,,,,,,,,
GEORGES,1998,,,,,,,,
GEORGES,1998,,,,,,,,
GEORGES,1998,,,,,,,,
GEORGES,1998,,,,,,,,
GEORGES,1998,,,,,,,,
GEORGES,1998,,,,,,,,
GEORGES,1998,,,,,,,,
GEORGES,1998,,,,,,,,
GEORGES,1998,,,,,,,,
GEORGES,1998,,,,,,,,
GEORGES,1998,,,,,,,,
GEORGES,1998,,,,,,,,
GEORGES,1998,,,,,,,,
ALLISON,2001,,,,,,,,
ALLISON,2001,,,,,,,,
BERTHA,2002,,,,,,,,
BERTHA,2002,,,,,,,,
BERTHA,2002,,,,,,,,
BERTHA,2002,,,,,,,,
BERTHA,2002,,,,,,,,
BERTHA,2002,,,,,,,,
BERTHA,2002,,,,,,,,
BERTHA,2002,,,,,,,,
BERTHA,2002,,,,,,,,
BERTHA,2002,,,,,,,,
BERTHA,2002,,,,,,,,
BERTHA,2002,,,,,,,,
BERTHA,2002,,,,,,,,
BERTHA,2002,,,,,,,,
BERTHA,2002,,,,,,,,
BERTHA,2002,,,,,,,,
BERTHA,2002,,,,,,,,
BERTHA,2002,,,,,,,,
BERTHA,2002,,,,,,,,
BERTHA,2002,,,,,,,,
BERTHA,2002,,,,,,,,
BERTHA,2002,,,,,,,,
BERTHA,2002,,,,,,,,
BERTHA,2002,,,,,,,,
BERTHA,2002,,,,,,,,
BERTHA,2002,,,,,,,,
BERTHA,2002,,,,,,,,
BERTHA,2002,,,,,,,,
HANNA,2002,,,,,,,,
HANNA,2002,,,,,,,,
HANNA,2002,,,,,,,,
HANNA,2002,,,,,,,,
ISIDORE,2002,,,,,,,,
ISIDORE,2002,,,,,,,,
ISIDORE,2002,,,,,,,,
ISIDORE,2002,,,,,,,,
BILL,2003,,,,,,,,
BILL,2003,,,,,,,,
BILL,2003,,,,,,,,
BILL,2003,,,,,,,,
BILL,2003,,,,,,,,
BILL,2003,,,,,,,,
BILL,2003,,,,,,,,
BILL,2003,,,,,,,,
BILL,2003,,,,,,,,
BILL,2003,,,,,,,,
BILL,2003,,,,,,,,
BILL,2003,,,,,,,,
BILL,2003,,,,,,,,
BILL,2003,,,,,,,,
BILL,2003,,,,,,,,
BILL,2003,,,,,,,,
BILL,2003,,,,,,,,
BILL,2003,,,,,,,,
BILL,2003,,,,,,,,
BILL,2003,,,,,,,,
BILL,2003,,,,,,,,
BILL,2003,,,,,,,,
BILL,2003,,,,,,,,
BILL,2003,,,,,,,,
MATTHEW,2004,,,,,,,,
MATTHEW,2004,,,,,,,,
MATTHEW,2004,,,,,,,,
MATTHEW,2004,,,,,,,,
MATTHEW,2004,,,,,,,,
MATTHEW,2004,,,,,,,,
CINDY,2005,,,,,,,,
CINDY,2005,,,,,,,,
CINDY,2005,,,,,,,,
CINDY,2005,,,,,,,,
CINDY,2005,,,,,,,,
CINDY,2005,,,,,,,,
CINDY,2005,,,,,,,,
CINDY,2005,,,,,,,,
CINDY,2005,,,,,,,,
CINDY,2005,,,,,,,,
CINDY,2005,,,,,,,,
CINDY,2005,,,,,,,,
CINDY,2005,,,,,,,,
CINDY,2005,,,,,,,,
CINDY,2005,,,,,,,,
CINDY,2005,,,,,,,,
CINDY,2005,,,,,,,,
CINDY,2005,,,,,,,,
CINDY,2005,,,,,,,,
CINDY,2005,,,,,,,,
CINDY,2005,,,,,,,,
CINDY,2005,,,,,,,,
CINDY,2005,,,,,,,,
CINDY,2005,,,,,,,,
IDA,2009,,,,,,,,
IDA,2009,,,,,,,,
IDA,2009,,,,,,,,
IDA,2009,,,,,,,,
