,pdn,y_test,1.930000312,2.9839856642
0,10.0125207575,7.1614662301,2.8510545274,8.1285119183
1,10.5030062278,10.1179297367,0.3850764911,0.148283904
2,9.5432155228,11.0628254334,1.5196099106,2.3092142804
3,6.7253846179,6.0697064735,0.6556781444,0.4299138291
4,3.5143186488,4.3401248314,0.8258061826,0.6819558513
5,6.7226655996,9.7151047038,2.9924391042,8.9546917926
6,8.5809342731,8.9640796447,0.3831453716,0.1468003758
7,7.2348208255,8.0002574495,0.765436624,0.5858932253
8,9.142372486,9.7293478561,0.5869753701,0.3445400851
9,13.1231894444,5.1376100629,7.9855793815,63.7694780586
10,5.8054289028,7.4495653426,1.6441364398,2.7031846327
11,9.7048508192,8.6155723082,1.089278511,1.1865276744
12,13.1098024771,10.234720227,2.8750822501,8.2660979451
13,6.2721325056,14.0425452279,7.7704127223,60.3793138752
14,6.0589564156,8.0976122043,2.0386557887,4.1561174246
15,9.5951225377,10.2365156317,0.641393094,0.411385101
16,7.8631961279,7.5629339525,0.3002621754,0.090157374
17,7.2537352237,6.1226129454,1.1311222783,1.2794376085
18,10.4666399704,9.236358794,1.2302811764,1.5135917729
19,9.0937846085,8.521906074,0.5718785345,0.3270450582
20,10.2344482863,9.2837113442,0.9507369421,0.9039007332
21,8.8576758017,3.4837193969,5.3739564048,28.8794074411
22,9.1669579518,10.5509325091,1.3839745573,1.9153855751
23,5.4063093972,5.7524663633,0.3461569661,0.1198246452
24,8.592432987,11.3720596127,2.7796266257,7.7263241786
25,11.1891884006,10.1525894375,1.0365989631,1.0745374104
26,8.9479751568,7.2646573849,1.6833177719,2.8335587212
27,6.9720026057,7.3910719184,0.4190693127,0.1756190888
28,9.700762269,9.3984740897,0.3022881793,0.0913781433
29,1.7128741871,5.1000004232,3.3871262361,11.4726241394
30,6.001850501,14.2601284035,8.2582779025,68.1991539152
31,11.4652784416,10.0086804659,1.4565979757,2.1216776629
32,8.216734657,6.2447980412,1.9719366158,3.8885340167
33,9.7698347295,11.3637267987,1.5938920692,2.5404919284
34,8.9864793926,9.9247446867,0.9382652941,0.8803417622
35,5.5188252707,7.6725593525,2.1537340818,4.638570495
36,11.6367229583,7.9293644822,3.7073584761,13.7445068701
37,7.1758259625,8.8766292937,1.7008033312,2.8927319713
38,6.5693997574,4.8915479622,1.6778517952,2.8151866467
39,6.2140879542,6.88890563,0.6748176758,0.4553788956
40,7.103452171,5.5646017036,1.5388504674,2.368060761
41,6.5225309398,6.090309094,0.4322218458,0.1868157239
42,9.4842521991,8.4051175096,1.0791346895,1.1645316781
43,7.6293342867,8.2306845641,0.6013502774,0.3616221561
44,14.0293595408,10.0900111989,3.9393483419,15.5184653586
45,6.8731117816,6.8443579686,0.028753813,0.0008267818
46,8.472236362,8.0758464178,0.3963899442,0.1571249879
47,6.2776227659,6.0949449738,0.1826777921,0.0333711757
48,9.9009209068,9.3611291014,0.5397918054,0.2913751932
49,7.8862056997,8.3093323119,0.4231266122,0.1790361299
50,6.6300534652,11.0435173904,4.4134639252,19.4786638193
51,9.700253661,10.3118322723,0.6115786113,0.3740283978
52,9.2976835631,7.0014798826,2.2962036805,5.2725513422
53,4.2668405349,7.1607964837,2.8939559488,8.3749810335
54,15.3576814233,9.4891585458,5.8685228775,34.4395607632
55,5.5786122593,5.1661090582,0.4125032011,0.1701588909
56,7.3383489388,9.2924338825,1.9540849437,3.8184479672
57,8.3985912414,6.862480456,1.5361107854,2.359636345
58,21.7904225823,4.8756635507,16.9147590316,286.1090730978
59,4.3347013623,14.148313699,9.8136123367,96.306987095
60,8.4812412023,8.6756366915,0.1943954892,0.0377896062
61,10.1195001692,8.0239040903,2.0955960789,4.3915229258
62,7.0565381543,6.8364602408,0.2200779135,0.048434288
63,8.1999828297,7.9505275253,0.2494553044,0.0622279489
64,6.7791135562,5.2081194964,1.5709940598,2.4680223361
65,9.6881607742,9.1920417963,0.4961189779,0.2461340403
66,7.0038204545,6.7060189604,0.2978014941,0.0886857299
67,8.9185345284,8.6927186088,0.2258159196,0.0509928296
68,10.8859841307,10.1363206166,0.7496635141,0.5619953844
69,11.8366600287,7.9908093598,3.8458506689,14.7905673671
70,10.8203328755,10.6121378214,0.2081950541,0.0433451805
71,9.3214904274,9.9437442778,0.6222538504,0.3871998543
72,8.4081355634,10.1035281572,1.6953925938,2.874356047
73,8.5157766603,9.7432733962,1.2274967359,1.5067482367
74,9.0920245063,6.3665874683,2.725437038,7.4280070483
75,3.8261984833,7.2286997621,3.4025012788,11.5770149526
76,7.9473242961,7.5350052067,0.4123190894,0.1700070315
77,7.0537269002,7.2228217959,0.1690948957,0.0285930838
78,10.9093806064,9.7052151536,1.2041654528,1.4500144377
79,10.9399331501,9.2206035351,1.719329615,2.9560943249
80,7.8811085752,5.0130243384,2.8680842368,8.2259071896
81,6.8207402151,6.8690339335,0.0482937184,0.0023322832
82,8.3564918546,10.5250479486,2.168556094,4.7026355327
83,7.3955996076,8.5493346516,1.153735044,1.3311045518
84,6.723108568,8.7253147085,2.0022061405,4.008829429
85,8.7878210645,3.8948594555,4.892961609,23.9410733073
86,11.3513372157,10.1135490275,1.2377881882,1.5321195988
87,5.2153172587,14.0927740591,8.8774568004,78.8092392424
88,9.1910974589,8.8726064713,0.3184909876,0.1014365092
89,8.7470590033,10.2512617025,1.5042026992,2.2626257604
90,5.582292918,5.5189771569,0.0633157611,0.0040088856
91,6.676924485,9.7827475946,3.1058231096,9.6461371879
92,9.062100645,11.3923639528,2.3302633078,5.4301270836
93,6.8270913561,6.2111715706,0.6159197855,0.3793571822
94,7.94724236,6.122255335,1.824987025,3.3305776413
95,7.6484861134,7.4442184903,0.2042676231,0.0417252619
96,6.7967629247,6.2061255595,0.5906373652,0.3488524972
97,7.3775038144,5.6448937913,1.7326100231,3.0019374921
98,8.4567446689,7.070977536,1.3857671329,1.9203505465
99,5.691043093,5.6511450349,0.0398980581,0.001591855
100,8.4847944262,8.3697803552,0.115014071,0.0132282365
101,6.4496455085,11.4117319983,4.9620864898,24.6223023324
102,3.8942613251,4.8809010312,0.9866397061,0.9734579096
103,10.275894534,6.7364231167,3.5394714173,12.5278579139
104,9.762561233,10.5453118735,0.7827506405,0.6126985652
105,11.0984743877,10.0341552801,1.0643191076,1.1327751628
106,8.6139074952,9.6413701344,1.0274626392,1.055679475
107,6.8587712426,6.7242591022,0.1345121404,0.0180935159
108,7.7188742946,8.0218367879,0.3029624933,0.0917862723
109,9.8628058754,9.7117429618,0.1510629136,0.0228200039
110,7.7162750496,9.2383625055,1.5220874559,2.3167502234
111,7.787239096,5.7780327463,2.0092063497,4.0369101558
112,7.0538361856,6.6865780383,0.3672581473,0.1348785467
113,9.1887337522,9.3486380933,0.1599043411,0.0255693983
114,9.3218704237,10.0148520072,0.6929815835,0.4802234751
115,9.8901617182,9.7160173437,0.1741443745,0.0303262632
116,4.9226523707,7.7060402243,2.7833878536,7.7472479434
117,9.7547683906,9.3896497541,0.3651186365,0.1333116188
118,9.875220683,9.3637299517,0.5114907313,0.2616227682
119,12.1440836206,10.031178327,2.1129052936,4.4643687795
120,7.2582523444,9.810269317,2.5520169726,6.5127906282
121,11.3164965795,7.9696560712,3.3468405083,11.2013413881
122,6.1774292161,6.387621176,0.2101919599,0.04418066
123,8.9328997312,9.6985892533,0.7656895221,0.5862804443
124,7.8132382063,8.8006023942,0.9873641879,0.9748880396
125,7.6204454463,6.0871035887,1.5333418576,2.3511372522
126,4.4983539842,6.0047111435,1.5063571593,2.2691118913
127,8.0338598891,9.1933919931,1.159532104,1.3445147002
128,12.7343152125,9.8030387101,2.9312765024,8.5923819333
129,9.9320286291,9.3600810949,0.5719475342,0.3271239819
130,7.5271000783,5.5437231694,1.9833769089,3.9337839628
131,5.3259975538,5.583572274,0.2575747202,0.0663447365
132,6.7181730515,4.3864050855,2.331767966,5.4371418472
133,6.8184502369,0.2694959043,6.5489543326,42.88880285
134,10.6400335394,10.6764106499,0.0363771105,0.0013232942
135,3.1669463339,4.9246020819,1.757655748,3.0893537286
136,8.9468282611,9.5151426091,0.568314348,0.3229811982
137,5.5990170184,5.4337750935,0.1652419249,0.0273048937
138,10.9287931444,9.6200699783,1.3087231661,1.7127563256
139,6.802145162,6.6780983587,0.1240468033,0.0153876094
140,10.137462549,3.9587550737,6.1787074753,38.1764260651
141,6.2907172544,5.6011228309,0.6895944235,0.4755404689
142,17.8767548785,9.4251289148,8.4516259637,71.4299814298
143,13.9950455423,7.0504345836,6.9446109587,48.2276213673
144,10.9286816677,9.9069890048,1.0216926629,1.0438558973
145,5.1168706815,8.6866293252,3.5697586437,12.7431767741
146,6.5916679611,6.7939953107,0.2023273496,0.0409363564
147,5.7267734895,6.3586643667,0.6318908772,0.3992860807
148,7.7147819531,6.2590848442,1.4556971089,2.1190540728
149,11.419642205,11.629470634,0.209828429,0.0440279696
150,14.3975776982,7.9858695852,6.411708113,41.1100009259
151,11.3455215703,9.4644484129,1.8810731574,3.5384362235
152,6.8419742737,7.2275666191,0.3855923454,0.1486814568
153,3.8322292832,7.7866035493,3.9543742661,15.6370758367
154,10.8539552124,9.6027489503,1.2512062621,1.5655171103
155,7.3287358225,5.5439264837,1.7848093388,3.1855443757
156,14.2309492069,9.7379544237,4.4929947832,20.187002122
157,7.5069632238,13.9597981984,6.4528349746,41.6390792088
158,2.9760210025,4.3795441583,1.4035231558,1.9698772488
159,14.0298975331,11.0981655916,2.9317319415,8.5950521768
160,12.5371707814,7.0453103871,5.4918603943,30.1605305905
161,8.1474224998,6.7470578474,1.4003646524,1.9610211597
162,8.6513779853,9.8029303462,1.1515523609,1.3260728398
163,9.8525564006,10.1287203564,0.2761639558,0.0762665305
164,4.845174518,5.0780761765,0.2329016585,0.0542431825
165,5.3977135578,7.3909884908,1.993274933,3.9731449586
166,1.9572694404,3.4905465925,1.5332771521,2.3509388252
167,9.155530966,9.9357546108,0.7802236448,0.608748936
168,4.4530839566,7.2485412799,2.7954573233,7.8145816466
169,11.1472024812,10.7174035761,0.4297989051,0.1847270988
170,8.2134409662,5.1985544605,3.0148865057,9.0895406425
